<svg width="35" height="32" viewBox="0 0 35 32" fill="none" xmlns="http://www.w3.org/2000/svg">
<path d="M1.5 16.1993C1.08579 16.1993 0.75 16.5351 0.75 16.9493C0.75 17.3635 1.08579 17.6993 1.5 17.6993V16.1993ZM15.2141 16.9493H15.9641C15.9641 16.5351 15.6283 16.1993 15.2141 16.1993V16.9493ZM15.2141 19.9769V20.7269C15.6283 20.7269 15.9641 20.3911 15.9641 19.9769H15.2141ZM1.5 19.2269C1.08579 19.2269 0.75 19.5627 0.75 19.9769C0.75 20.3911 1.08579 20.7269 1.5 20.7269V19.2269ZM1.5 23.6647C1.08579 23.6647 0.75 24.0005 0.75 24.4147C0.75 24.8289 1.08579 25.1647 1.5 25.1647V23.6647ZM7.11988 25.9907L7.11737 26.7407L7.11988 25.9907ZM17.4371 25.9907L17.4601 25.2411L17.4371 25.9907ZM22.8473 24.2073L22.8783 23.458L22.8473 24.2073ZM27.5865 25.9907L27.5364 26.7391L27.5865 25.9907ZM33.5 24.9573C33.9142 24.9573 34.25 24.6215 34.25 24.2073C34.25 23.7931 33.9142 23.4573 33.5 23.4573V24.9573ZM25.7675 25.4051L25.4017 26.0599L25.7675 25.4051ZM25.7675 17.0787L26.0659 16.3906C25.8756 16.3081 25.6595 16.3081 25.4692 16.3906L25.7675 17.0787ZM20.8497 24.6944L21.1911 25.3622L20.8497 24.6944ZM18.0969 17.3442L17.7891 16.6602C17.4285 16.8225 17.2558 17.2369 17.3945 17.6072L18.0969 17.3442ZM33.327 17.5373L34.0328 17.7911C34.1627 17.4297 33.9986 17.0285 33.6527 16.8617L33.327 17.5373ZM20.4888 10.8758V10.1258C20.0746 10.1258 19.7388 10.4616 19.7388 10.8758H20.4888ZM20.4888 16.2679L20.7965 16.9519L20.4888 16.2679ZM31.0083 10.8758H31.7583C31.7583 10.4616 31.4225 10.1258 31.0083 10.1258V10.8758ZM31.0083 16.4194L30.6826 17.095L31.0083 16.4194ZM23.1281 7.90697V7.15697C22.7139 7.15697 22.3781 7.49275 22.3781 7.90697H23.1281ZM28.3879 7.90697H29.1379C29.1379 7.49275 28.8021 7.15697 28.3879 7.15697V7.90697ZM26.508 6.00024C26.508 5.58603 26.1722 5.25024 25.758 5.25024C25.3438 5.25024 25.008 5.58603 25.008 6.00024H26.508ZM1.5 17.6993H15.2141V16.1993H1.5V17.6993ZM14.4641 16.9493V19.9769H15.9641V16.9493H14.4641ZM3.00979 19.2269H1.5V20.7269H3.00979V19.2269ZM2.25979 19.9769V24.6128H3.75979V19.9769H2.25979ZM5.61005 19.2269H3.00979V20.7269H5.61005V19.2269ZM4.86005 19.9769V25.7272H6.36005V19.9769H4.86005ZM10.4121 19.2269H5.61005V20.7269H10.4121V19.2269ZM9.66207 19.9769V25.024H11.1621V19.9769H9.66207ZM15.2141 19.2269H12.8131V20.7269H15.2141V19.2269ZM12.8131 19.2269H10.4121V20.7269H12.8131V19.2269ZM12.8131 19.9769C12.0631 19.9769 12.0631 19.9769 12.0631 19.9769C12.0631 19.977 12.0631 19.977 12.0631 19.977C12.0631 19.9771 12.0631 19.9771 12.0631 19.9772C12.0631 19.9772 12.0631 19.9773 12.0631 19.9774C12.0631 19.9775 12.0631 19.9776 12.0631 19.9777C12.0631 19.9778 12.0631 19.9779 12.0631 19.978C12.0631 19.9781 12.0631 19.9783 12.0631 19.9784C12.0631 19.9786 12.0631 19.9787 12.0631 19.9789C12.0631 19.979 12.0631 19.9792 12.0631 19.9794C12.0631 19.9796 12.0631 19.9798 12.0631 19.98C12.0631 19.9802 12.0631 19.9804 12.0631 19.9806C12.0631 19.9808 12.0631 19.9811 12.0631 19.9813C12.0631 19.9816 12.0631 19.9818 12.0631 19.9821C12.0631 19.9823 12.0631 19.9826 12.0631 19.9829C12.0631 19.9832 12.0631 19.9835 12.0631 19.9838C12.0631 19.9841 12.0631 19.9844 12.0631 19.9847C12.0631 19.985 12.0631 19.9854 12.0631 19.9857C12.0631 19.9861 12.0631 19.9864 12.0631 19.9868C12.0631 19.9871 12.0631 19.9875 12.0631 19.9879C12.0631 19.9883 12.0631 19.9887 12.0631 19.9891C12.0631 19.9895 12.0631 19.9899 12.0631 19.9903C12.0631 19.9907 12.0631 19.9912 12.0631 19.9916C12.0631 19.992 12.0631 19.9925 12.0631 19.9929C12.0631 19.9934 12.0631 19.9939 12.0631 19.9944C12.0631 19.9948 12.0631 19.9953 12.0631 19.9958C12.0631 19.9963 12.0631 19.9968 12.0631 19.9973C12.0631 19.9979 12.0631 19.9984 12.0631 19.9989C12.0631 19.9995 12.0631 20 12.0631 20.0006C12.0631 20.0011 12.0631 20.0017 12.0631 20.0023C12.0631 20.0028 12.0631 20.0034 12.0631 20.004C12.0631 20.0046 12.0631 20.0052 12.0631 20.0058C12.0631 20.0064 12.0631 20.0071 12.0631 20.0077C12.0631 20.0083 12.0631 20.009 12.0631 20.0096C12.0631 20.0103 12.0631 20.0109 12.0631 20.0116C12.0631 20.0123 12.0631 20.013 12.0631 20.0136C12.0631 20.0143 12.0631 20.015 12.0631 20.0157C12.0631 20.0164 12.0631 20.0172 12.0631 20.0179C12.0631 20.0186 12.0631 20.0194 12.0631 20.0201C12.0631 20.0208 12.0631 20.0216 12.0631 20.0224C12.0631 20.0231 12.0631 20.0239 12.0631 20.0247C12.0631 20.0255 12.0631 20.0262 12.0631 20.0271C12.0631 20.0278 12.0631 20.0287 12.0631 20.0295C12.0631 20.0303 12.0631 20.0311 12.0631 20.032C12.0631 20.0328 12.0631 20.0336 12.0631 20.0345C12.0631 20.0354 12.0631 20.0362 12.0631 20.0371C12.0631 20.038 12.0631 20.0388 12.0631 20.0397C12.0631 20.0406 12.0631 20.0415 12.0631 20.0424C12.0631 20.0433 12.0631 20.0443 12.0631 20.0452C12.0631 20.0461 12.0631 20.0471 12.0631 20.048C12.0631 20.0489 12.0631 20.0499 12.0631 20.0509C12.0631 20.0518 12.0631 20.0528 12.0631 20.0538C12.0631 20.0548 12.0631 20.0558 12.0631 20.0568C12.0631 20.0577 12.0631 20.0588 12.0631 20.0598C12.0631 20.0608 12.0631 20.0618 12.0631 20.0629C12.0631 20.0639 12.0631 20.0649 12.0631 20.066C12.0631 20.067 12.0631 20.0681 12.0631 20.0692C12.0631 20.0702 12.0631 20.0713 12.0631 20.0724C12.0631 20.0735 12.0631 20.0746 12.0631 20.0757C12.0631 20.0768 12.0631 20.0779 12.0631 20.079C12.0631 20.0801 12.0631 20.0813 12.0631 20.0824C12.0631 20.0836 12.0631 20.0847 12.0631 20.0859C12.0631 20.087 12.0631 20.0882 12.0631 20.0894C12.0631 20.0905 12.0631 20.0917 12.0631 20.0929C12.0631 20.0941 12.0631 20.0953 12.0631 20.0965C12.0631 20.0977 12.0631 20.0989 12.0631 20.1002C12.0631 20.1014 12.0631 20.1026 12.0631 20.1039C12.0631 20.1051 12.0631 20.1064 12.0631 20.1076C12.0631 20.1089 12.0631 20.1101 12.0631 20.1114C12.0631 20.1127 12.0631 20.114 12.0631 20.1153C12.0631 20.1166 12.0631 20.1179 12.0631 20.1192C12.0631 20.1205 12.0631 20.1218 12.0631 20.1231C12.0631 20.1245 12.0631 20.1258 12.0631 20.1271C12.0631 20.1285 12.0631 20.1298 12.0631 20.1312C12.0631 20.1326 12.0631 20.1339 12.0631 20.1353C12.0631 20.1367 12.0631 20.1381 12.0631 20.1395C12.0631 20.1409 12.0631 20.1423 12.0631 20.1437C12.0631 20.1451 12.0631 20.1465 12.0631 20.1479C12.0631 20.1493 12.0631 20.1508 12.0631 20.1522C12.0631 20.1537 12.0631 20.1551 12.0631 20.1566C12.0631 20.158 12.0631 20.1595 12.0631 20.161C12.0631 20.1625 12.0631 20.1639 12.0631 20.1654C12.0631 20.1669 12.0631 20.1684 12.0631 20.1699C12.0631 20.1714 12.0631 20.173 12.0631 20.1745C12.0631 20.176 12.0631 20.1775 12.0631 20.1791C12.0631 20.1806 12.0631 20.1822 12.0631 20.1837C12.0631 20.1853 12.0631 20.1868 12.0631 20.1884C12.0631 20.19 12.0631 20.1916 12.0631 20.1932C12.0631 20.1947 12.0631 20.1963 12.0631 20.1979C12.0631 20.1995 12.0631 20.2012 12.0631 20.2028C12.0631 20.2044 12.0631 20.206 12.0631 20.2077C12.0631 20.2093 12.0631 20.2109 12.0631 20.2126C12.0631 20.2142 12.0631 20.2159 12.0631 20.2176C12.0631 20.2192 12.0631 20.2209 12.0631 20.2226C12.0631 20.2243 12.0631 20.226 12.0631 20.2277C12.0631 20.2294 12.0631 20.2311 12.0631 20.2328C12.0631 20.2345 12.0631 20.2362 12.0631 20.2379C12.0631 20.2397 12.0631 20.2414 12.0631 20.2431C12.0631 20.2449 12.0631 20.2466 12.0631 20.2484C12.0631 20.2502 12.0631 20.2519 12.0631 20.2537C12.0631 20.2555 12.0631 20.2573 12.0631 20.259C12.0631 20.2608 12.0631 20.2626 12.0631 20.2644C12.0631 20.2662 12.0631 20.2681 12.0631 20.2699C12.0631 20.2717 12.0631 20.2735 12.0631 20.2754C12.0631 20.2772 12.0631 20.279 12.0631 20.2809C12.0631 20.2827 12.0631 20.2846 12.0631 20.2865C12.0631 20.2883 12.0631 20.2902 12.0631 20.2921C12.0631 20.294 12.0631 20.2958 12.0631 20.2977C12.0631 20.2996 12.0631 20.3015 12.0631 20.3034C12.0631 20.3053 12.0631 20.3073 12.0631 20.3092C12.0631 20.3111 12.0631 20.313 12.0631 20.315C12.0631 20.3169 12.0631 20.3189 12.0631 20.3208C12.0631 20.3228 12.0631 20.3247 12.0631 20.3267C12.0631 20.3287 12.0631 20.3306 12.0631 20.3326C12.0631 20.3346 12.0631 20.3366 12.0631 20.3386C12.0631 20.3406 12.0631 20.3426 12.0631 20.3446C12.0631 20.3466 12.0631 20.3486 12.0631 20.3507C12.0631 20.3527 12.0631 20.3547 12.0631 20.3568C12.0631 20.3588 12.0631 20.3608 12.0631 20.3629C12.0631 20.3649 12.0631 20.367 12.0631 20.3691C12.0631 20.3711 12.0631 20.3732 12.0631 20.3753C12.0631 20.3774 12.0631 20.3795 12.0631 20.3816C12.0631 20.3837 12.0631 20.3858 12.0631 20.3879C12.0631 20.39 12.0631 20.3921 12.0631 20.3942C12.0631 20.3963 12.0631 20.3985 12.0631 20.4006C12.0631 20.4028 12.0631 20.4049 12.0631 20.407C12.0631 20.4092 12.0631 20.4114 12.0631 20.4135C12.0631 20.4157 12.0631 20.4179 12.0631 20.42C12.0631 20.4222 12.0631 20.4244 12.0631 20.4266C12.0631 20.4288 12.0631 20.431 12.0631 20.4332C12.0631 20.4354 12.0631 20.4376 12.0631 20.4398C12.0631 20.4421 12.0631 20.4443 12.0631 20.4465C12.0631 20.4487 12.0631 20.451 12.0631 20.4532C12.0631 20.4555 12.0631 20.4577 12.0631 20.46C12.0631 20.4623 12.0631 20.4645 12.0631 20.4668C12.0631 20.4691 12.0631 20.4713 12.0631 20.4736C12.0631 20.4759 12.0631 20.4782 12.0631 20.4805C12.0631 20.4828 12.0631 20.4851 12.0631 20.4874C12.0631 20.4897 12.0631 20.4921 12.0631 20.4944C12.0631 20.4967 12.0631 20.499 12.0631 20.5014C12.0631 20.5037 12.0631 20.5061 12.0631 20.5084C12.0631 20.5108 12.0631 20.5131 12.0631 20.5155C12.0631 20.5179 12.0631 20.5202 12.0631 20.5226C12.0631 20.525 12.0631 20.5274 12.0631 20.5298C12.0631 20.5322 12.0631 20.5346 12.0631 20.537C12.0631 20.5394 12.0631 20.5418 12.0631 20.5442C12.0631 20.5466 12.0631 20.549 12.0631 20.5515C12.0631 20.5539 12.0631 20.5563 12.0631 20.5588C12.0631 20.5612 12.0631 20.5637 12.0631 20.5661C12.0631 20.5686 12.0631 20.571 12.0631 20.5735C12.0631 20.576 12.0631 20.5784 12.0631 20.5809C12.0631 20.5834 12.0631 20.5859 12.0631 20.5884C12.0631 20.5909 12.0631 20.5934 12.0631 20.5959C12.0631 20.5984 12.0631 20.6009 12.0631 20.6034C12.0631 20.6059 12.0631 20.6084 12.0631 20.6109C12.0631 20.6135 12.0631 20.616 12.0631 20.6186C12.0631 20.6211 12.0631 20.6236 12.0631 20.6262C12.0631 20.6287 12.0631 20.6313 12.0631 20.6339C12.0631 20.6364 12.0631 20.639 12.0631 20.6416C12.0631 20.6442 12.0631 20.6467 12.0631 20.6493C12.0631 20.6519 12.0631 20.6545 12.0631 20.6571C12.0631 20.6597 12.0631 20.6623 12.0631 20.6649C12.0631 20.6675 12.0631 20.6702 12.0631 20.6728C12.0631 20.6754 12.0631 20.678 12.0631 20.6807C12.0631 20.6833 12.0631 20.686 12.0631 20.6886C12.0631 20.6912 12.0631 20.6939 12.0631 20.6966C12.0631 20.6992 12.0631 20.7019 12.0631 20.7046C12.0631 20.7072 12.0631 20.7099 12.0631 20.7126C12.0631 20.7153 12.0631 20.718 12.0631 20.7206C12.0631 20.7233 12.0631 20.726 12.0631 20.7287C12.0631 20.7315 12.0631 20.7342 12.0631 20.7369C12.0631 20.7396 12.0631 20.7423 12.0631 20.745C12.0631 20.7478 12.0631 20.7505 12.0631 20.7532C12.0631 20.756 12.0631 20.7587 12.0631 20.7615C12.0631 20.7642 12.0631 20.767 12.0631 20.7697C12.0631 20.7725 12.0631 20.7753 12.0631 20.778C12.0631 20.7808 12.0631 20.7836 12.0631 20.7864C12.0631 20.7892 12.0631 20.792 12.0631 20.7947C12.0631 20.7975 12.0631 20.8003 12.0631 20.8031C12.0631 20.806 12.0631 20.8088 12.0631 20.8116C12.0631 20.8144 12.0631 20.8172 12.0631 20.82C12.0631 20.8229 12.0631 20.8257 12.0631 20.8285C12.0631 20.8314 12.0631 20.8342 12.0631 20.8371C12.0631 20.8399 12.0631 20.8428 12.0631 20.8456C12.0631 20.8485 12.0631 20.8514 12.0631 20.8542C12.0631 20.8571 12.0631 20.86 12.0631 20.8628C12.0631 20.8657 12.0631 20.8686 12.0631 20.8715C12.0631 20.8744 12.0631 20.8773 12.0631 20.8802C12.0631 20.8831 12.0631 20.886 12.0631 20.8889C12.0631 20.8918 12.0631 20.8947 12.0631 20.8977C12.0631 20.9006 12.0631 20.9035 12.0631 20.9064C12.0631 20.9094 12.0631 20.9123 12.0631 20.9152C12.0631 20.9182 12.0631 20.9211 12.0631 20.9241C12.0631 20.927 12.0631 20.93 12.0631 20.933C12.0631 20.9359 12.0631 20.9389 12.0631 20.9419C12.0631 20.9448 12.0631 20.9478 12.0631 20.9508C12.0631 20.9538 12.0631 20.9568 12.0631 20.9598C12.0631 20.9628 12.0631 20.9657 12.0631 20.9688C12.0631 20.9718 12.0631 20.9748 12.0631 20.9778C12.0631 20.9808 12.0631 20.9838 12.0631 20.9868C12.0631 20.9898 12.0631 20.9929 12.0631 20.9959C12.0631 20.9989 12.0631 21.002 12.0631 21.005C12.0631 21.0081 12.0631 21.0111 12.0631 21.0141C12.0631 21.0172 12.0631 21.0203 12.0631 21.0233C12.0631 21.0264 12.0631 21.0294 12.0631 21.0325C12.0631 21.0356 12.0631 21.0387 12.0631 21.0417C12.0631 21.0448 12.0631 21.0479 12.0631 21.051C12.0631 21.0541 12.0631 21.0572 12.0631 21.0603C12.0631 21.0634 12.0631 21.0665 12.0631 21.0696C12.0631 21.0727 12.0631 21.0758 12.0631 21.0789C12.0631 21.082 12.0631 21.0851 12.0631 21.0883C12.0631 21.0914 12.0631 21.0945 12.0631 21.0977C12.0631 21.1008 12.0631 21.1039 12.0631 21.1071C12.0631 21.1102 12.0631 21.1134 12.0631 21.1165C12.0631 21.1197 12.0631 21.1228 12.0631 21.126C12.0631 21.1292 12.0631 21.1323 12.0631 21.1355C12.0631 21.1387 12.0631 21.1418 12.0631 21.145C12.0631 21.1482 12.0631 21.1514 12.0631 21.1546C12.0631 21.1578 12.0631 21.1609 12.0631 21.1641C12.0631 21.1673 12.0631 21.1705 12.0631 21.1737C12.0631 21.177 12.0631 21.1802 12.0631 21.1834C12.0631 21.1866 12.0631 21.1898 12.0631 21.193C12.0631 21.1963 12.0631 21.1995 12.0631 21.2027C12.0631 21.2059 12.0631 21.2092 12.0631 21.2124C12.0631 21.2157 12.0631 21.2189 12.0631 21.2221C12.0631 21.2254 12.0631 21.2286 12.0631 21.2319C12.0631 21.2352 12.0631 21.2384 12.0631 21.2417C12.0631 21.245 12.0631 21.2482 12.0631 21.2515C12.0631 21.2548 12.0631 21.258 12.0631 21.2613C12.0631 21.2646 12.0631 21.2679 12.0631 21.2712C12.0631 21.2745 12.0631 21.2778 12.0631 21.2811C12.0631 21.2844 12.0631 21.2877 12.0631 21.291C12.0631 21.2943 12.0631 21.2976 12.0631 21.3009C12.0631 21.3042 12.0631 21.3075 12.0631 21.3108C12.0631 21.3142 12.0631 21.3175 12.0631 21.3208C12.0631 21.3241 12.0631 21.3275 12.0631 21.3308C12.0631 21.3341 12.0631 21.3375 12.0631 21.3408C12.0631 21.3442 12.0631 21.3475 12.0631 21.3509C12.0631 21.3542 12.0631 21.3576 12.0631 21.3609C12.0631 21.3643 12.0631 21.3677 12.0631 21.371C12.0631 21.3744 12.0631 21.3778 12.0631 21.3812C12.0631 21.3845 12.0631 21.3879 12.0631 21.3913C12.0631 21.3947 12.0631 21.3981 12.0631 21.4014C12.0631 21.4048 12.0631 21.4082 12.0631 21.4116C12.0631 21.415 12.0631 21.4184 12.0631 21.4218C12.0631 21.4252 12.0631 21.4286 12.0631 21.432C12.0631 21.4355 12.0631 21.4389 12.0631 21.4423C12.0631 21.4457 12.0631 21.4491 12.0631 21.4526C12.0631 21.456 12.0631 21.4594 12.0631 21.4628C12.0631 21.4663 12.0631 21.4697 12.0631 21.4732C12.0631 21.4766 12.0631 21.48 12.0631 21.4835C12.0631 21.4869 12.0631 21.4904 12.0631 21.4938C12.0631 21.4973 12.0631 21.5008 12.0631 21.5042C12.0631 21.5077 12.0631 21.5111 12.0631 21.5146C12.0631 21.5181 12.0631 21.5215 12.0631 21.525C12.0631 21.5285 12.0631 21.532 12.0631 21.5354C12.0631 21.5389 12.0631 21.5424 12.0631 21.5459C12.0631 21.5494 12.0631 21.5529 12.0631 21.5564C12.0631 21.5599 12.0631 21.5634 12.0631 21.5669C12.0631 21.5704 12.0631 21.5739 12.0631 21.5774C12.0631 21.5809 12.0631 21.5844 12.0631 21.5879C12.0631 21.5914 12.0631 21.5949 12.0631 21.5985C12.0631 21.602 12.0631 21.6055 12.0631 21.609C12.0631 21.6126 12.0631 21.6161 12.0631 21.6196C12.0631 21.6231 12.0631 21.6267 12.0631 21.6302C12.0631 21.6338 12.0631 21.6373 12.0631 21.6408C12.0631 21.6444 12.0631 21.6479 12.0631 21.6515C12.0631 21.655 12.0631 21.6586 12.0631 21.6622C12.0631 21.6657 12.0631 21.6693 12.0631 21.6728C12.0631 21.6764 12.0631 21.68 12.0631 21.6835C12.0631 21.6871 12.0631 21.6907 12.0631 21.6942C12.0631 21.6978 12.0631 21.7014 12.0631 21.705C12.0631 21.7086 12.0631 21.7121 12.0631 21.7157C12.0631 21.7193 12.0631 21.7229 12.0631 21.7265C12.0631 21.7301 12.0631 21.7337 12.0631 21.7373C12.0631 21.7409 12.0631 21.7445 12.0631 21.7481C12.0631 21.7517 12.0631 21.7553 12.0631 21.7589C12.0631 21.7625 12.0631 21.7661 12.0631 21.7697C12.0631 21.7734 12.0631 21.777 12.0631 21.7806C12.0631 21.7842 12.0631 21.7878 12.0631 21.7915C12.0631 21.7951 12.0631 21.7987 12.0631 21.8023C12.0631 21.806 12.0631 21.8096 12.0631 21.8132C12.0631 21.8169 12.0631 21.8205 12.0631 21.8242C12.0631 21.8278 12.0631 21.8314 12.0631 21.8351C12.0631 21.8387 12.0631 21.8424 12.0631 21.846C12.0631 21.8497 12.0631 21.8533 12.0631 21.857C12.0631 21.8606 12.0631 21.8643 12.0631 21.868C12.0631 21.8716 12.0631 21.8753 12.0631 21.879C12.0631 21.8826 12.0631 21.8863 12.0631 21.89C12.0631 21.8936 12.0631 21.8973 12.0631 21.901C12.0631 21.9047 12.0631 21.9083 12.0631 21.912C12.0631 21.9157 12.0631 21.9194 12.0631 21.9231C12.0631 21.9268 12.0631 21.9304 12.0631 21.9341C12.0631 21.9378 12.0631 21.9415 12.0631 21.9452C12.0631 21.9489 12.0631 21.9526 12.0631 21.9563C12.0631 21.96 12.0631 21.9637 12.0631 21.9674C12.0631 21.9711 12.0631 21.9748 12.0631 21.9785C12.0631 21.9822 12.0631 21.9859 12.0631 21.9897C12.0631 21.9934 12.0631 21.9971 12.0631 22.0008C12.0631 22.0045 12.0631 22.0082 12.0631 22.012C12.0631 22.0157 12.0631 22.0194 12.0631 22.0231C12.0631 22.0268 12.0631 22.0306 12.0631 22.0343C12.0631 22.038 12.0631 22.0418 12.0631 22.0455C12.0631 22.0492 12.0631 22.053 12.0631 22.0567C12.0631 22.0604 12.0631 22.0642 12.0631 22.0679C12.0631 22.0717 12.0631 22.0754 12.0631 22.0792C12.0631 22.0829 12.0631 22.0867 12.0631 22.0904C12.0631 22.0942 12.0631 22.0979 12.0631 22.1017C12.0631 22.1054 12.0631 22.1092 12.0631 22.1129C12.0631 22.1167 12.0631 22.1204 12.0631 22.1242C12.0631 22.128 12.0631 22.1317 12.0631 22.1355C12.0631 22.1393 12.0631 22.143 12.0631 22.1468C12.0631 22.1506 12.0631 22.1543 12.0631 22.1581C12.0631 22.1619 12.0631 22.1656 12.0631 22.1694C12.0631 22.1732 12.0631 22.177 12.0631 22.1808C12.0631 22.1845 12.0631 22.1883 12.0631 22.1921C12.0631 22.1959 12.0631 22.1997 12.0631 22.2034C12.0631 22.2072 12.0631 22.211 12.0631 22.2148C12.0631 22.2186 12.0631 22.2224 12.0631 22.2262C12.0631 22.23 12.0631 22.2338 12.0631 22.2376C12.0631 22.2414 12.0631 22.2452 12.0631 22.249C12.0631 22.2528 12.0631 22.2565 12.0631 22.2604C12.0631 22.2642 12.0631 22.268 12.0631 22.2718C12.0631 22.2756 12.0631 22.2794 12.0631 22.2832C12.0631 22.287 12.0631 22.2908 12.0631 22.2946C12.0631 22.2984 12.0631 22.3022 12.0631 22.306C12.0631 22.3099 12.0631 22.3137 12.0631 22.3175C12.0631 22.3213 12.0631 22.3251 12.0631 22.3289C12.0631 22.3328 12.0631 22.3366 12.0631 22.3404C12.0631 22.3442 12.0631 22.348 12.0631 22.3519C12.0631 22.3557 12.0631 22.3595 12.0631 22.3633C12.0631 22.3672 12.0631 22.371 12.0631 22.3748C12.0631 22.3787 12.0631 22.3825 12.0631 22.3863C12.0631 22.3902 12.0631 22.394 12.0631 22.3978C12.0631 22.4017 12.0631 22.4055 12.0631 22.4093C12.0631 22.4132 12.0631 22.417 12.0631 22.4208C12.0631 22.4247 12.0631 22.4285 12.0631 22.4324C12.0631 22.4362 12.0631 22.44 12.0631 22.4439C12.0631 22.4477 12.0631 22.4516 12.0631 22.4554C12.0631 22.4593 12.0631 22.4631 12.0631 22.467C12.0631 22.4708 12.0631 22.4747 12.0631 22.4785C12.0631 22.4824 12.0631 22.4862 12.0631 22.4901C12.0631 22.4939 12.0631 22.4978 12.0631 22.5016C12.0631 22.5055 12.0631 22.5093 12.0631 22.5132C12.0631 22.517 12.0631 22.5209 12.0631 22.5247C12.0631 22.5286 12.0631 22.5325 12.0631 22.5363C12.0631 22.5402 12.0631 22.544 12.0631 22.5479C12.0631 22.5518 12.0631 22.5556 12.0631 22.5595C12.0631 22.5633 12.0631 22.5672 12.0631 22.5711C12.0631 22.5749 12.0631 22.5788 12.0631 22.5827C12.0631 22.5865 12.0631 22.5904 12.0631 22.5943C12.0631 22.5981 12.0631 22.602 12.0631 22.6059C12.0631 22.6097 12.0631 22.6136 12.0631 22.6175C12.0631 22.6213 12.0631 22.6252 12.0631 22.6291C12.0631 22.633 12.0631 22.6368 12.0631 22.6407C12.0631 22.6446 12.0631 22.6484 12.0631 22.6523C12.0631 22.6562 12.0631 22.6601 12.0631 22.6639C12.0631 22.6678 12.0631 22.6717 12.0631 22.6756C12.0631 22.6794 12.0631 22.6833 12.0631 22.6872C12.0631 22.6911 12.0631 22.695 12.0631 22.6988C12.0631 22.7027 12.0631 22.7066 12.0631 22.7105C12.0631 22.7143 12.0631 22.7182 12.0631 22.7221C12.0631 22.726 12.0631 22.7299 12.0631 22.7337C12.0631 22.7376 12.0631 22.7415 12.0631 22.7454C12.0631 22.7493 12.0631 22.7532 12.0631 22.757C12.0631 22.7609 12.0631 22.7648 12.0631 22.7687C12.0631 22.7726 12.0631 22.7764 12.0631 22.7803C12.0631 22.7842 12.0631 22.7881 12.0631 22.792C12.0631 22.7959 12.0631 22.7997 12.0631 22.8036C12.0631 22.8075 12.0631 22.8114 12.0631 22.8153C12.0631 22.8192 12.0631 22.8231 12.0631 22.8269C12.0631 22.8308 12.0631 22.8347 12.0631 22.8386C12.0631 22.8425 12.0631 22.8464 12.0631 22.8503C12.0631 22.8541 12.0631 22.858 12.0631 22.8619C12.0631 22.8658 12.0631 22.8697 12.0631 22.8736C12.0631 22.8775 12.0631 22.8813 12.0631 22.8852C12.0631 22.8891 12.0631 22.893 12.0631 22.8969C12.0631 22.9008 12.0631 22.9047 12.0631 22.9086C12.0631 22.9124 12.0631 22.9163 12.0631 22.9202C12.0631 22.9241 12.0631 22.928 12.0631 22.9319C12.0631 22.9358 12.0631 22.9396 12.0631 22.9435C12.0631 22.9474 12.0631 22.9513 12.0631 22.9552C12.0631 22.9591 12.0631 22.963 12.0631 22.9668C12.0631 22.9707 12.0631 22.9746 12.0631 22.9785C12.0631 22.9824 12.0631 22.9863 12.0631 22.9902C12.0631 22.994 12.0631 22.9979 12.0631 23.0018C12.0631 23.0057 12.0631 23.0096 12.0631 23.0135C12.0631 23.0173 12.0631 23.0212 12.0631 23.0251C12.0631 23.029 12.0631 23.0329 12.0631 23.0368C12.0631 23.0406 12.0631 23.0445 12.0631 23.0484C12.0631 23.0523 12.0631 23.0562 12.0631 23.0601C12.0631 23.0639 12.0631 23.0678 12.0631 23.0717C12.0631 23.0756 12.0631 23.0795 12.0631 23.0833C12.0631 23.0872 12.0631 23.0911 12.0631 23.095C12.0631 23.0989 12.0631 23.1027 12.0631 23.1066C12.0631 23.1105 12.0631 23.1144 12.0631 23.1183C12.0631 23.1221 12.0631 23.126 12.0631 23.1299C12.0631 23.1338 12.0631 23.1376 12.0631 23.1415C12.0631 23.1454 12.0631 23.1493 12.0631 23.1531C12.0631 23.157 12.0631 23.1609 12.0631 23.1648C12.0631 23.1686 12.0631 23.1725 12.0631 23.1764C12.0631 23.1802 12.0631 23.1841 12.0631 23.188C12.0631 23.1919 12.0631 23.1957 12.0631 23.1996C12.0631 23.2035 12.0631 23.2073 12.0631 23.2112C12.0631 23.2151 12.0631 23.2189 12.0631 23.2228C12.0631 23.2267 12.0631 23.2305 12.0631 23.2344C12.0631 23.2383 12.0631 23.2421 12.0631 23.246C12.0631 23.2498 12.0631 23.2537 12.0631 23.2576C12.0631 23.2614 12.0631 23.2653 12.0631 23.2692C12.0631 23.273 12.0631 23.2769 12.0631 23.2807C12.0631 23.2846 12.0631 23.2884 12.0631 23.2923C12.0631 23.2962 12.0631 23.3 12.0631 23.3039C12.0631 23.3077 12.0631 23.3116 12.0631 23.3154C12.0631 23.3193 12.0631 23.3231 12.0631 23.327C12.0631 23.3308 12.0631 23.3347 12.0631 23.3385C12.0631 23.3424 12.0631 23.3462 12.0631 23.3501C12.0631 23.3539 12.0631 23.3578 12.0631 23.3616C12.0631 23.3654 12.0631 23.3693 12.0631 23.3731C12.0631 23.377 12.0631 23.3808 12.0631 23.3847C12.0631 23.3885 12.0631 23.3923 12.0631 23.3962C12.0631 23.4 12.0631 23.4038 12.0631 23.4077C12.0631 23.4115 12.0631 23.4153 12.0631 23.4192C12.0631 23.423 12.0631 23.4268 12.0631 23.4307C12.0631 23.4345 12.0631 23.4383 12.0631 23.4422C12.0631 23.446 12.0631 23.4498 12.0631 23.4536C12.0631 23.4575 12.0631 23.4613 12.0631 23.4651C12.0631 23.4689 12.0631 23.4728 12.0631 23.4766C12.0631 23.4804 12.0631 23.4842 12.0631 23.488C12.0631 23.4918 12.0631 23.4957 12.0631 23.4995C12.0631 23.5033 12.0631 23.5071 12.0631 23.5109C12.0631 23.5147 12.0631 23.5185 12.0631 23.5223C12.0631 23.5262 12.0631 23.53 12.0631 23.5338C12.0631 23.5376 12.0631 23.5414 12.0631 23.5452C12.0631 23.549 12.0631 23.5528 12.0631 23.5566C12.0631 23.5604 12.0631 23.5642 12.0631 23.568C12.0631 23.5718 12.0631 23.5756 12.0631 23.5794C12.0631 23.5832 12.0631 23.5869 12.0631 23.5907C12.0631 23.5945 12.0631 23.5983 12.0631 23.6021C12.0631 23.6059 12.0631 23.6097 12.0631 23.6135C12.0631 23.6172 12.0631 23.621 12.0631 23.6248C12.0631 23.6286 12.0631 23.6324 12.0631 23.6361C12.0631 23.6399 12.0631 23.6437 12.0631 23.6475C12.0631 23.6512 12.0631 23.655 12.0631 23.6588C12.0631 23.6625 12.0631 23.6663 12.0631 23.6701C12.0631 23.6738 12.0631 23.6776 12.0631 23.6814C12.0631 23.6851 12.0631 23.6889 12.0631 23.6927C12.0631 23.6964 12.0631 23.7002 12.0631 23.7039C12.0631 23.7077 12.0631 23.7114 12.0631 23.7152C12.0631 23.7189 12.0631 23.7227 12.0631 23.7264C12.0631 23.7302 12.0631 23.7339 12.0631 23.7377C12.0631 23.7414 12.0631 23.7452 12.0631 23.7489C12.0631 23.7526 12.0631 23.7564 12.0631 23.7601C12.0631 23.7638 12.0631 23.7676 12.0631 23.7713C12.0631 23.775 12.0631 23.7788 12.0631 23.7825C12.0631 23.7862 12.0631 23.7899 12.0631 23.7937C12.0631 23.7974 12.0631 23.8011 12.0631 23.8048C12.0631 23.8085 12.0631 23.8123 12.0631 23.816C12.0631 23.8197 12.0631 23.8234 12.0631 23.8271C12.0631 23.8308 12.0631 23.8345 12.0631 23.8382C12.0631 23.8419 12.0631 23.8456 12.0631 23.8493C12.0631 23.853 12.0631 23.8567 12.0631 23.8604C12.0631 23.8641 12.0631 23.8678 12.0631 23.8715C12.0631 23.8752 12.0631 23.8789 12.0631 23.8826C12.0631 23.8863 12.0631 23.89 12.0631 23.8936C12.0631 23.8973 12.0631 23.901 12.0631 23.9047C12.0631 23.9084 12.0631 23.912 12.0631 23.9157C12.0631 23.9194 12.0631 23.9231 12.0631 23.9267C12.0631 23.9304 12.0631 23.9341 12.0631 23.9377C12.0631 23.9414 12.0631 23.945 12.0631 23.9487C12.0631 23.9524 12.0631 23.956 12.0631 23.9597C12.0631 23.9633 12.0631 23.967 12.0631 23.9706C12.0631 23.9743 12.0631 23.9779 12.0631 23.9816C12.0631 23.9852 12.0631 23.9888 12.0631 23.9925C12.0631 23.9961 12.0631 23.9997 12.0631 24.0034C12.0631 24.007 12.0631 24.0106 12.0631 24.0143C12.0631 24.0179 12.0631 24.0215 12.0631 24.0251C12.0631 24.0288 12.0631 24.0324 12.0631 24.036C12.0631 24.0396 12.0631 24.0432 12.0631 24.0468C12.0631 24.0504 12.0631 24.0541 12.0631 24.0577C12.0631 24.0613 12.0631 24.0649 12.0631 24.0685C12.0631 24.0721 12.0631 24.0757 12.0631 24.0793C12.0631 24.0829 12.0631 24.0864 12.0631 24.09C12.0631 24.0936 12.0631 24.0972 12.0631 24.1008C12.0631 24.1044 12.0631 24.108 12.0631 24.1115C12.0631 24.1151 12.0631 24.1187 12.0631 24.1223C12.0631 24.1258 12.0631 24.1294 12.0631 24.133C12.0631 24.1365 12.0631 24.1401 12.0631 24.1436C12.0631 24.1472 12.0631 24.1508 12.0631 24.1543C12.0631 24.1579 12.0631 24.1614 12.0631 24.165C12.0631 24.1685 12.0631 24.1721 12.0631 24.1756C12.0631 24.1791 12.0631 24.1827 12.0631 24.1862C12.0631 24.1897 12.0631 24.1933 12.0631 24.1968C12.0631 24.2003 12.0631 24.2039 12.0631 24.2074C12.0631 24.2109 12.0631 24.2144 12.0631 24.2179C12.0631 24.2214 12.0631 24.225 12.0631 24.2285C12.0631 24.232 12.0631 24.2355 12.0631 24.239C12.0631 24.2425 12.0631 24.246 12.0631 24.2495C12.0631 24.253 12.0631 24.2565 12.0631 24.26C12.0631 24.2635 12.0631 24.2669 12.0631 24.2704C12.0631 24.2739 12.0631 24.2774 12.0631 24.2809C12.0631 24.2843 12.0631 24.2878 12.0631 24.2913C12.0631 24.2948 12.0631 24.2982 12.0631 24.3017C12.0631 24.3052 12.0631 24.3086 12.0631 24.3121C12.0631 24.3155 12.0631 24.319 12.0631 24.3224C12.0631 24.3259 12.0631 24.3293 12.0631 24.3328C12.0631 24.3362 12.0631 24.3396 12.0631 24.3431C12.0631 24.3465 12.0631 24.3499 12.0631 24.3534C12.0631 24.3568 12.0631 24.3602 12.0631 24.3637C12.0631 24.3671 12.0631 24.3705 12.0631 24.3739C12.0631 24.3773 12.0631 24.3807 12.0631 24.3841C12.0631 24.3875 12.0631 24.3909 12.0631 24.3943C12.0631 24.3977 12.0631 24.4011 12.0631 24.4045C12.0631 24.4079 12.0631 24.4113 12.0631 24.4147H13.5631C13.5631 24.4113 13.5631 24.4079 13.5631 24.4045C13.5631 24.4011 13.5631 24.3977 13.5631 24.3943C13.5631 24.3909 13.5631 24.3875 13.5631 24.3841C13.5631 24.3807 13.5631 24.3773 13.5631 24.3739C13.5631 24.3705 13.5631 24.3671 13.5631 24.3637C13.5631 24.3602 13.5631 24.3568 13.5631 24.3534C13.5631 24.3499 13.5631 24.3465 13.5631 24.3431C13.5631 24.3396 13.5631 24.3362 13.5631 24.3328C13.5631 24.3293 13.5631 24.3259 13.5631 24.3224C13.5631 24.319 13.5631 24.3155 13.5631 24.3121C13.5631 24.3086 13.5631 24.3052 13.5631 24.3017C13.5631 24.2982 13.5631 24.2948 13.5631 24.2913C13.5631 24.2878 13.5631 24.2843 13.5631 24.2809C13.5631 24.2774 13.5631 24.2739 13.5631 24.2704C13.5631 24.2669 13.5631 24.2635 13.5631 24.26C13.5631 24.2565 13.5631 24.253 13.5631 24.2495C13.5631 24.246 13.5631 24.2425 13.5631 24.239C13.5631 24.2355 13.5631 24.232 13.5631 24.2285C13.5631 24.225 13.5631 24.2214 13.5631 24.2179C13.5631 24.2144 13.5631 24.2109 13.5631 24.2074C13.5631 24.2039 13.5631 24.2003 13.5631 24.1968C13.5631 24.1933 13.5631 24.1897 13.5631 24.1862C13.5631 24.1827 13.5631 24.1791 13.5631 24.1756C13.5631 24.1721 13.5631 24.1685 13.5631 24.165C13.5631 24.1614 13.5631 24.1579 13.5631 24.1543C13.5631 24.1508 13.5631 24.1472 13.5631 24.1436C13.5631 24.1401 13.5631 24.1365 13.5631 24.133C13.5631 24.1294 13.5631 24.1258 13.5631 24.1223C13.5631 24.1187 13.5631 24.1151 13.5631 24.1115C13.5631 24.108 13.5631 24.1044 13.5631 24.1008C13.5631 24.0972 13.5631 24.0936 13.5631 24.09C13.5631 24.0864 13.5631 24.0829 13.5631 24.0793C13.5631 24.0757 13.5631 24.0721 13.5631 24.0685C13.5631 24.0649 13.5631 24.0613 13.5631 24.0577C13.5631 24.0541 13.5631 24.0504 13.5631 24.0468C13.5631 24.0432 13.5631 24.0396 13.5631 24.036C13.5631 24.0324 13.5631 24.0288 13.5631 24.0251C13.5631 24.0215 13.5631 24.0179 13.5631 24.0143C13.5631 24.0106 13.5631 24.007 13.5631 24.0034C13.5631 23.9997 13.5631 23.9961 13.5631 23.9925C13.5631 23.9888 13.5631 23.9852 13.5631 23.9816C13.5631 23.9779 13.5631 23.9743 13.5631 23.9706C13.5631 23.967 13.5631 23.9633 13.5631 23.9597C13.5631 23.956 13.5631 23.9524 13.5631 23.9487C13.5631 23.945 13.5631 23.9414 13.5631 23.9377C13.5631 23.9341 13.5631 23.9304 13.5631 23.9267C13.5631 23.9231 13.5631 23.9194 13.5631 23.9157C13.5631 23.912 13.5631 23.9084 13.5631 23.9047C13.5631 23.901 13.5631 23.8973 13.5631 23.8936C13.5631 23.89 13.5631 23.8863 13.5631 23.8826C13.5631 23.8789 13.5631 23.8752 13.5631 23.8715C13.5631 23.8678 13.5631 23.8641 13.5631 23.8604C13.5631 23.8567 13.5631 23.853 13.5631 23.8493C13.5631 23.8456 13.5631 23.8419 13.5631 23.8382C13.5631 23.8345 13.5631 23.8308 13.5631 23.8271C13.5631 23.8234 13.5631 23.8197 13.5631 23.816C13.5631 23.8123 13.5631 23.8085 13.5631 23.8048C13.5631 23.8011 13.5631 23.7974 13.5631 23.7937C13.5631 23.7899 13.5631 23.7862 13.5631 23.7825C13.5631 23.7788 13.5631 23.775 13.5631 23.7713C13.5631 23.7676 13.5631 23.7638 13.5631 23.7601C13.5631 23.7564 13.5631 23.7526 13.5631 23.7489C13.5631 23.7452 13.5631 23.7414 13.5631 23.7377C13.5631 23.7339 13.5631 23.7302 13.5631 23.7264C13.5631 23.7227 13.5631 23.7189 13.5631 23.7152C13.5631 23.7114 13.5631 23.7077 13.5631 23.7039C13.5631 23.7002 13.5631 23.6964 13.5631 23.6927C13.5631 23.6889 13.5631 23.6851 13.5631 23.6814C13.5631 23.6776 13.5631 23.6738 13.5631 23.6701C13.5631 23.6663 13.5631 23.6625 13.5631 23.6588C13.5631 23.655 13.5631 23.6512 13.5631 23.6475C13.5631 23.6437 13.5631 23.6399 13.5631 23.6361C13.5631 23.6324 13.5631 23.6286 13.5631 23.6248C13.5631 23.621 13.5631 23.6172 13.5631 23.6135C13.5631 23.6097 13.5631 23.6059 13.5631 23.6021C13.5631 23.5983 13.5631 23.5945 13.5631 23.5907C13.5631 23.5869 13.5631 23.5832 13.5631 23.5794C13.5631 23.5756 13.5631 23.5718 13.5631 23.568C13.5631 23.5642 13.5631 23.5604 13.5631 23.5566C13.5631 23.5528 13.5631 23.549 13.5631 23.5452C13.5631 23.5414 13.5631 23.5376 13.5631 23.5338C13.5631 23.53 13.5631 23.5262 13.5631 23.5223C13.5631 23.5185 13.5631 23.5147 13.5631 23.5109C13.5631 23.5071 13.5631 23.5033 13.5631 23.4995C13.5631 23.4957 13.5631 23.4918 13.5631 23.488C13.5631 23.4842 13.5631 23.4804 13.5631 23.4766C13.5631 23.4728 13.5631 23.4689 13.5631 23.4651C13.5631 23.4613 13.5631 23.4575 13.5631 23.4536C13.5631 23.4498 13.5631 23.446 13.5631 23.4422C13.5631 23.4383 13.5631 23.4345 13.5631 23.4307C13.5631 23.4268 13.5631 23.423 13.5631 23.4192C13.5631 23.4153 13.5631 23.4115 13.5631 23.4077C13.5631 23.4038 13.5631 23.4 13.5631 23.3962C13.5631 23.3923 13.5631 23.3885 13.5631 23.3847C13.5631 23.3808 13.5631 23.377 13.5631 23.3731C13.5631 23.3693 13.5631 23.3654 13.5631 23.3616C13.5631 23.3578 13.5631 23.3539 13.5631 23.3501C13.5631 23.3462 13.5631 23.3424 13.5631 23.3385C13.5631 23.3347 13.5631 23.3308 13.5631 23.327C13.5631 23.3231 13.5631 23.3193 13.5631 23.3154C13.5631 23.3116 13.5631 23.3077 13.5631 23.3039C13.5631 23.3 13.5631 23.2962 13.5631 23.2923C13.5631 23.2884 13.5631 23.2846 13.5631 23.2807C13.5631 23.2769 13.5631 23.273 13.5631 23.2692C13.5631 23.2653 13.5631 23.2614 13.5631 23.2576C13.5631 23.2537 13.5631 23.2498 13.5631 23.246C13.5631 23.2421 13.5631 23.2383 13.5631 23.2344C13.5631 23.2305 13.5631 23.2267 13.5631 23.2228C13.5631 23.2189 13.5631 23.2151 13.5631 23.2112C13.5631 23.2073 13.5631 23.2035 13.5631 23.1996C13.5631 23.1957 13.5631 23.1919 13.5631 23.188C13.5631 23.1841 13.5631 23.1802 13.5631 23.1764C13.5631 23.1725 13.5631 23.1686 13.5631 23.1648C13.5631 23.1609 13.5631 23.157 13.5631 23.1531C13.5631 23.1493 13.5631 23.1454 13.5631 23.1415C13.5631 23.1376 13.5631 23.1338 13.5631 23.1299C13.5631 23.126 13.5631 23.1221 13.5631 23.1183C13.5631 23.1144 13.5631 23.1105 13.5631 23.1066C13.5631 23.1027 13.5631 23.0989 13.5631 23.095C13.5631 23.0911 13.5631 23.0872 13.5631 23.0833C13.5631 23.0795 13.5631 23.0756 13.5631 23.0717C13.5631 23.0678 13.5631 23.0639 13.5631 23.0601C13.5631 23.0562 13.5631 23.0523 13.5631 23.0484C13.5631 23.0445 13.5631 23.0406 13.5631 23.0368C13.5631 23.0329 13.5631 23.029 13.5631 23.0251C13.5631 23.0212 13.5631 23.0173 13.5631 23.0135C13.5631 23.0096 13.5631 23.0057 13.5631 23.0018C13.5631 22.9979 13.5631 22.994 13.5631 22.9902C13.5631 22.9863 13.5631 22.9824 13.5631 22.9785C13.5631 22.9746 13.5631 22.9707 13.5631 22.9668C13.5631 22.963 13.5631 22.9591 13.5631 22.9552C13.5631 22.9513 13.5631 22.9474 13.5631 22.9435C13.5631 22.9396 13.5631 22.9358 13.5631 22.9319C13.5631 22.928 13.5631 22.9241 13.5631 22.9202C13.5631 22.9163 13.5631 22.9124 13.5631 22.9086C13.5631 22.9047 13.5631 22.9008 13.5631 22.8969C13.5631 22.893 13.5631 22.8891 13.5631 22.8852C13.5631 22.8813 13.5631 22.8775 13.5631 22.8736C13.5631 22.8697 13.5631 22.8658 13.5631 22.8619C13.5631 22.858 13.5631 22.8541 13.5631 22.8503C13.5631 22.8464 13.5631 22.8425 13.5631 22.8386C13.5631 22.8347 13.5631 22.8308 13.5631 22.8269C13.5631 22.8231 13.5631 22.8192 13.5631 22.8153C13.5631 22.8114 13.5631 22.8075 13.5631 22.8036C13.5631 22.7997 13.5631 22.7959 13.5631 22.792C13.5631 22.7881 13.5631 22.7842 13.5631 22.7803C13.5631 22.7764 13.5631 22.7726 13.5631 22.7687C13.5631 22.7648 13.5631 22.7609 13.5631 22.757C13.5631 22.7532 13.5631 22.7493 13.5631 22.7454C13.5631 22.7415 13.5631 22.7376 13.5631 22.7337C13.5631 22.7299 13.5631 22.726 13.5631 22.7221C13.5631 22.7182 13.5631 22.7143 13.5631 22.7105C13.5631 22.7066 13.5631 22.7027 13.5631 22.6988C13.5631 22.695 13.5631 22.6911 13.5631 22.6872C13.5631 22.6833 13.5631 22.6794 13.5631 22.6756C13.5631 22.6717 13.5631 22.6678 13.5631 22.6639C13.5631 22.6601 13.5631 22.6562 13.5631 22.6523C13.5631 22.6484 13.5631 22.6446 13.5631 22.6407C13.5631 22.6368 13.5631 22.633 13.5631 22.6291C13.5631 22.6252 13.5631 22.6213 13.5631 22.6175C13.5631 22.6136 13.5631 22.6097 13.5631 22.6059C13.5631 22.602 13.5631 22.5981 13.5631 22.5943C13.5631 22.5904 13.5631 22.5865 13.5631 22.5827C13.5631 22.5788 13.5631 22.5749 13.5631 22.5711C13.5631 22.5672 13.5631 22.5633 13.5631 22.5595C13.5631 22.5556 13.5631 22.5518 13.5631 22.5479C13.5631 22.544 13.5631 22.5402 13.5631 22.5363C13.5631 22.5325 13.5631 22.5286 13.5631 22.5247C13.5631 22.5209 13.5631 22.517 13.5631 22.5132C13.5631 22.5093 13.5631 22.5055 13.5631 22.5016C13.5631 22.4978 13.5631 22.4939 13.5631 22.4901C13.5631 22.4862 13.5631 22.4824 13.5631 22.4785C13.5631 22.4747 13.5631 22.4708 13.5631 22.467C13.5631 22.4631 13.5631 22.4593 13.5631 22.4554C13.5631 22.4516 13.5631 22.4477 13.5631 22.4439C13.5631 22.44 13.5631 22.4362 13.5631 22.4324C13.5631 22.4285 13.5631 22.4247 13.5631 22.4208C13.5631 22.417 13.5631 22.4132 13.5631 22.4093C13.5631 22.4055 13.5631 22.4017 13.5631 22.3978C13.5631 22.394 13.5631 22.3902 13.5631 22.3863C13.5631 22.3825 13.5631 22.3787 13.5631 22.3748C13.5631 22.371 13.5631 22.3672 13.5631 22.3633C13.5631 22.3595 13.5631 22.3557 13.5631 22.3519C13.5631 22.348 13.5631 22.3442 13.5631 22.3404C13.5631 22.3366 13.5631 22.3328 13.5631 22.3289C13.5631 22.3251 13.5631 22.3213 13.5631 22.3175C13.5631 22.3137 13.5631 22.3099 13.5631 22.306C13.5631 22.3022 13.5631 22.2984 13.5631 22.2946C13.5631 22.2908 13.5631 22.287 13.5631 22.2832C13.5631 22.2794 13.5631 22.2756 13.5631 22.2718C13.5631 22.268 13.5631 22.2642 13.5631 22.2604C13.5631 22.2565 13.5631 22.2528 13.5631 22.249C13.5631 22.2452 13.5631 22.2414 13.5631 22.2376C13.5631 22.2338 13.5631 22.23 13.5631 22.2262C13.5631 22.2224 13.5631 22.2186 13.5631 22.2148C13.5631 22.211 13.5631 22.2072 13.5631 22.2034C13.5631 22.1997 13.5631 22.1959 13.5631 22.1921C13.5631 22.1883 13.5631 22.1845 13.5631 22.1808C13.5631 22.177 13.5631 22.1732 13.5631 22.1694C13.5631 22.1656 13.5631 22.1619 13.5631 22.1581C13.5631 22.1543 13.5631 22.1506 13.5631 22.1468C13.5631 22.143 13.5631 22.1393 13.5631 22.1355C13.5631 22.1317 13.5631 22.128 13.5631 22.1242C13.5631 22.1204 13.5631 22.1167 13.5631 22.1129C13.5631 22.1092 13.5631 22.1054 13.5631 22.1017C13.5631 22.0979 13.5631 22.0942 13.5631 22.0904C13.5631 22.0867 13.5631 22.0829 13.5631 22.0792C13.5631 22.0754 13.5631 22.0717 13.5631 22.0679C13.5631 22.0642 13.5631 22.0604 13.5631 22.0567C13.5631 22.053 13.5631 22.0492 13.5631 22.0455C13.5631 22.0418 13.5631 22.038 13.5631 22.0343C13.5631 22.0306 13.5631 22.0268 13.5631 22.0231C13.5631 22.0194 13.5631 22.0157 13.5631 22.012C13.5631 22.0082 13.5631 22.0045 13.5631 22.0008C13.5631 21.9971 13.5631 21.9934 13.5631 21.9897C13.5631 21.9859 13.5631 21.9822 13.5631 21.9785C13.5631 21.9748 13.5631 21.9711 13.5631 21.9674C13.5631 21.9637 13.5631 21.96 13.5631 21.9563C13.5631 21.9526 13.5631 21.9489 13.5631 21.9452C13.5631 21.9415 13.5631 21.9378 13.5631 21.9341C13.5631 21.9304 13.5631 21.9268 13.5631 21.9231C13.5631 21.9194 13.5631 21.9157 13.5631 21.912C13.5631 21.9083 13.5631 21.9047 13.5631 21.901C13.5631 21.8973 13.5631 21.8936 13.5631 21.89C13.5631 21.8863 13.5631 21.8826 13.5631 21.879C13.5631 21.8753 13.5631 21.8716 13.5631 21.868C13.5631 21.8643 13.5631 21.8606 13.5631 21.857C13.5631 21.8533 13.5631 21.8497 13.5631 21.846C13.5631 21.8424 13.5631 21.8387 13.5631 21.8351C13.5631 21.8314 13.5631 21.8278 13.5631 21.8242C13.5631 21.8205 13.5631 21.8169 13.5631 21.8132C13.5631 21.8096 13.5631 21.806 13.5631 21.8023C13.5631 21.7987 13.5631 21.7951 13.5631 21.7915C13.5631 21.7878 13.5631 21.7842 13.5631 21.7806C13.5631 21.777 13.5631 21.7734 13.5631 21.7697C13.5631 21.7661 13.5631 21.7625 13.5631 21.7589C13.5631 21.7553 13.5631 21.7517 13.5631 21.7481C13.5631 21.7445 13.5631 21.7409 13.5631 21.7373C13.5631 21.7337 13.5631 21.7301 13.5631 21.7265C13.5631 21.7229 13.5631 21.7193 13.5631 21.7157C13.5631 21.7121 13.5631 21.7086 13.5631 21.705C13.5631 21.7014 13.5631 21.6978 13.5631 21.6942C13.5631 21.6907 13.5631 21.6871 13.5631 21.6835C13.5631 21.68 13.5631 21.6764 13.5631 21.6728C13.5631 21.6693 13.5631 21.6657 13.5631 21.6622C13.5631 21.6586 13.5631 21.655 13.5631 21.6515C13.5631 21.6479 13.5631 21.6444 13.5631 21.6408C13.5631 21.6373 13.5631 21.6338 13.5631 21.6302C13.5631 21.6267 13.5631 21.6231 13.5631 21.6196C13.5631 21.6161 13.5631 21.6126 13.5631 21.609C13.5631 21.6055 13.5631 21.602 13.5631 21.5985C13.5631 21.5949 13.5631 21.5914 13.5631 21.5879C13.5631 21.5844 13.5631 21.5809 13.5631 21.5774C13.5631 21.5739 13.5631 21.5704 13.5631 21.5669C13.5631 21.5634 13.5631 21.5599 13.5631 21.5564C13.5631 21.5529 13.5631 21.5494 13.5631 21.5459C13.5631 21.5424 13.5631 21.5389 13.5631 21.5354C13.5631 21.532 13.5631 21.5285 13.5631 21.525C13.5631 21.5215 13.5631 21.5181 13.5631 21.5146C13.5631 21.5111 13.5631 21.5077 13.5631 21.5042C13.5631 21.5008 13.5631 21.4973 13.5631 21.4938C13.5631 21.4904 13.5631 21.4869 13.5631 21.4835C13.5631 21.48 13.5631 21.4766 13.5631 21.4732C13.5631 21.4697 13.5631 21.4663 13.5631 21.4628C13.5631 21.4594 13.5631 21.456 13.5631 21.4526C13.5631 21.4491 13.5631 21.4457 13.5631 21.4423C13.5631 21.4389 13.5631 21.4355 13.5631 21.432C13.5631 21.4286 13.5631 21.4252 13.5631 21.4218C13.5631 21.4184 13.5631 21.415 13.5631 21.4116C13.5631 21.4082 13.5631 21.4048 13.5631 21.4014C13.5631 21.3981 13.5631 21.3947 13.5631 21.3913C13.5631 21.3879 13.5631 21.3845 13.5631 21.3812C13.5631 21.3778 13.5631 21.3744 13.5631 21.371C13.5631 21.3677 13.5631 21.3643 13.5631 21.3609C13.5631 21.3576 13.5631 21.3542 13.5631 21.3509C13.5631 21.3475 13.5631 21.3442 13.5631 21.3408C13.5631 21.3375 13.5631 21.3341 13.5631 21.3308C13.5631 21.3275 13.5631 21.3241 13.5631 21.3208C13.5631 21.3175 13.5631 21.3142 13.5631 21.3108C13.5631 21.3075 13.5631 21.3042 13.5631 21.3009C13.5631 21.2976 13.5631 21.2943 13.5631 21.291C13.5631 21.2877 13.5631 21.2844 13.5631 21.2811C13.5631 21.2778 13.5631 21.2745 13.5631 21.2712C13.5631 21.2679 13.5631 21.2646 13.5631 21.2613C13.5631 21.258 13.5631 21.2548 13.5631 21.2515C13.5631 21.2482 13.5631 21.245 13.5631 21.2417C13.5631 21.2384 13.5631 21.2352 13.5631 21.2319C13.5631 21.2286 13.5631 21.2254 13.5631 21.2221C13.5631 21.2189 13.5631 21.2157 13.5631 21.2124C13.5631 21.2092 13.5631 21.2059 13.5631 21.2027C13.5631 21.1995 13.5631 21.1963 13.5631 21.193C13.5631 21.1898 13.5631 21.1866 13.5631 21.1834C13.5631 21.1802 13.5631 21.177 13.5631 21.1737C13.5631 21.1705 13.5631 21.1673 13.5631 21.1641C13.5631 21.1609 13.5631 21.1578 13.5631 21.1546C13.5631 21.1514 13.5631 21.1482 13.5631 21.145C13.5631 21.1418 13.5631 21.1387 13.5631 21.1355C13.5631 21.1323 13.5631 21.1292 13.5631 21.126C13.5631 21.1228 13.5631 21.1197 13.5631 21.1165C13.5631 21.1134 13.5631 21.1102 13.5631 21.1071C13.5631 21.1039 13.5631 21.1008 13.5631 21.0977C13.5631 21.0945 13.5631 21.0914 13.5631 21.0883C13.5631 21.0851 13.5631 21.082 13.5631 21.0789C13.5631 21.0758 13.5631 21.0727 13.5631 21.0696C13.5631 21.0665 13.5631 21.0634 13.5631 21.0603C13.5631 21.0572 13.5631 21.0541 13.5631 21.051C13.5631 21.0479 13.5631 21.0448 13.5631 21.0417C13.5631 21.0387 13.5631 21.0356 13.5631 21.0325C13.5631 21.0294 13.5631 21.0264 13.5631 21.0233C13.5631 21.0203 13.5631 21.0172 13.5631 21.0141C13.5631 21.0111 13.5631 21.0081 13.5631 21.005C13.5631 21.002 13.5631 20.9989 13.5631 20.9959C13.5631 20.9929 13.5631 20.9898 13.5631 20.9868C13.5631 20.9838 13.5631 20.9808 13.5631 20.9778C13.5631 20.9748 13.5631 20.9718 13.5631 20.9688C13.5631 20.9657 13.5631 20.9628 13.5631 20.9598C13.5631 20.9568 13.5631 20.9538 13.5631 20.9508C13.5631 20.9478 13.5631 20.9448 13.5631 20.9419C13.5631 20.9389 13.5631 20.9359 13.5631 20.933C13.5631 20.93 13.5631 20.927 13.5631 20.9241C13.5631 20.9211 13.5631 20.9182 13.5631 20.9152C13.5631 20.9123 13.5631 20.9094 13.5631 20.9064C13.5631 20.9035 13.5631 20.9006 13.5631 20.8977C13.5631 20.8947 13.5631 20.8918 13.5631 20.8889C13.5631 20.886 13.5631 20.8831 13.5631 20.8802C13.5631 20.8773 13.5631 20.8744 13.5631 20.8715C13.5631 20.8686 13.5631 20.8657 13.5631 20.8628C13.5631 20.86 13.5631 20.8571 13.5631 20.8542C13.5631 20.8514 13.5631 20.8485 13.5631 20.8456C13.5631 20.8428 13.5631 20.8399 13.5631 20.8371C13.5631 20.8342 13.5631 20.8314 13.5631 20.8285C13.5631 20.8257 13.5631 20.8229 13.5631 20.82C13.5631 20.8172 13.5631 20.8144 13.5631 20.8116C13.5631 20.8088 13.5631 20.806 13.5631 20.8031C13.5631 20.8003 13.5631 20.7975 13.5631 20.7947C13.5631 20.792 13.5631 20.7892 13.5631 20.7864C13.5631 20.7836 13.5631 20.7808 13.5631 20.778C13.5631 20.7753 13.5631 20.7725 13.5631 20.7697C13.5631 20.767 13.5631 20.7642 13.5631 20.7615C13.5631 20.7587 13.5631 20.756 13.5631 20.7532C13.5631 20.7505 13.5631 20.7478 13.5631 20.745C13.5631 20.7423 13.5631 20.7396 13.5631 20.7369C13.5631 20.7342 13.5631 20.7315 13.5631 20.7287C13.5631 20.726 13.5631 20.7233 13.5631 20.7206C13.5631 20.718 13.5631 20.7153 13.5631 20.7126C13.5631 20.7099 13.5631 20.7072 13.5631 20.7046C13.5631 20.7019 13.5631 20.6992 13.5631 20.6966C13.5631 20.6939 13.5631 20.6912 13.5631 20.6886C13.5631 20.686 13.5631 20.6833 13.5631 20.6807C13.5631 20.678 13.5631 20.6754 13.5631 20.6728C13.5631 20.6702 13.5631 20.6675 13.5631 20.6649C13.5631 20.6623 13.5631 20.6597 13.5631 20.6571C13.5631 20.6545 13.5631 20.6519 13.5631 20.6493C13.5631 20.6467 13.5631 20.6442 13.5631 20.6416C13.5631 20.639 13.5631 20.6364 13.5631 20.6339C13.5631 20.6313 13.5631 20.6287 13.5631 20.6262C13.5631 20.6236 13.5631 20.6211 13.5631 20.6186C13.5631 20.616 13.5631 20.6135 13.5631 20.6109C13.5631 20.6084 13.5631 20.6059 13.5631 20.6034C13.5631 20.6009 13.5631 20.5984 13.5631 20.5959C13.5631 20.5934 13.5631 20.5909 13.5631 20.5884C13.5631 20.5859 13.5631 20.5834 13.5631 20.5809C13.5631 20.5784 13.5631 20.576 13.5631 20.5735C13.5631 20.571 13.5631 20.5686 13.5631 20.5661C13.5631 20.5637 13.5631 20.5612 13.5631 20.5588C13.5631 20.5563 13.5631 20.5539 13.5631 20.5515C13.5631 20.549 13.5631 20.5466 13.5631 20.5442C13.5631 20.5418 13.5631 20.5394 13.5631 20.537C13.5631 20.5346 13.5631 20.5322 13.5631 20.5298C13.5631 20.5274 13.5631 20.525 13.5631 20.5226C13.5631 20.5202 13.5631 20.5179 13.5631 20.5155C13.5631 20.5131 13.5631 20.5108 13.5631 20.5084C13.5631 20.5061 13.5631 20.5037 13.5631 20.5014C13.5631 20.499 13.5631 20.4967 13.5631 20.4944C13.5631 20.4921 13.5631 20.4897 13.5631 20.4874C13.5631 20.4851 13.5631 20.4828 13.5631 20.4805C13.5631 20.4782 13.5631 20.4759 13.5631 20.4736C13.5631 20.4713 13.5631 20.4691 13.5631 20.4668C13.5631 20.4645 13.5631 20.4623 13.5631 20.46C13.5631 20.4577 13.5631 20.4555 13.5631 20.4532C13.5631 20.451 13.5631 20.4487 13.5631 20.4465C13.5631 20.4443 13.5631 20.4421 13.5631 20.4398C13.5631 20.4376 13.5631 20.4354 13.5631 20.4332C13.5631 20.431 13.5631 20.4288 13.5631 20.4266C13.5631 20.4244 13.5631 20.4222 13.5631 20.42C13.5631 20.4179 13.5631 20.4157 13.5631 20.4135C13.5631 20.4114 13.5631 20.4092 13.5631 20.407C13.5631 20.4049 13.5631 20.4028 13.5631 20.4006C13.5631 20.3985 13.5631 20.3963 13.5631 20.3942C13.5631 20.3921 13.5631 20.39 13.5631 20.3879C13.5631 20.3858 13.5631 20.3837 13.5631 20.3816C13.5631 20.3795 13.5631 20.3774 13.5631 20.3753C13.5631 20.3732 13.5631 20.3711 13.5631 20.3691C13.5631 20.367 13.5631 20.3649 13.5631 20.3629C13.5631 20.3608 13.5631 20.3588 13.5631 20.3568C13.5631 20.3547 13.5631 20.3527 13.5631 20.3507C13.5631 20.3486 13.5631 20.3466 13.5631 20.3446C13.5631 20.3426 13.5631 20.3406 13.5631 20.3386C13.5631 20.3366 13.5631 20.3346 13.5631 20.3326C13.5631 20.3306 13.5631 20.3287 13.5631 20.3267C13.5631 20.3247 13.5631 20.3228 13.5631 20.3208C13.5631 20.3189 13.5631 20.3169 13.5631 20.315C13.5631 20.313 13.5631 20.3111 13.5631 20.3092C13.5631 20.3073 13.5631 20.3053 13.5631 20.3034C13.5631 20.3015 13.5631 20.2996 13.5631 20.2977C13.5631 20.2958 13.5631 20.294 13.5631 20.2921C13.5631 20.2902 13.5631 20.2883 13.5631 20.2865C13.5631 20.2846 13.5631 20.2827 13.5631 20.2809C13.5631 20.279 13.5631 20.2772 13.5631 20.2754C13.5631 20.2735 13.5631 20.2717 13.5631 20.2699C13.5631 20.2681 13.5631 20.2662 13.5631 20.2644C13.5631 20.2626 13.5631 20.2608 13.5631 20.259C13.5631 20.2573 13.5631 20.2555 13.5631 20.2537C13.5631 20.2519 13.5631 20.2502 13.5631 20.2484C13.5631 20.2466 13.5631 20.2449 13.5631 20.2431C13.5631 20.2414 13.5631 20.2397 13.5631 20.2379C13.5631 20.2362 13.5631 20.2345 13.5631 20.2328C13.5631 20.2311 13.5631 20.2294 13.5631 20.2277C13.5631 20.226 13.5631 20.2243 13.5631 20.2226C13.5631 20.2209 13.5631 20.2192 13.5631 20.2176C13.5631 20.2159 13.5631 20.2142 13.5631 20.2126C13.5631 20.2109 13.5631 20.2093 13.5631 20.2077C13.5631 20.206 13.5631 20.2044 13.5631 20.2028C13.5631 20.2012 13.5631 20.1995 13.5631 20.1979C13.5631 20.1963 13.5631 20.1947 13.5631 20.1932C13.5631 20.1916 13.5631 20.19 13.5631 20.1884C13.5631 20.1868 13.5631 20.1853 13.5631 20.1837C13.5631 20.1822 13.5631 20.1806 13.5631 20.1791C13.5631 20.1775 13.5631 20.176 13.5631 20.1745C13.5631 20.173 13.5631 20.1714 13.5631 20.1699C13.5631 20.1684 13.5631 20.1669 13.5631 20.1654C13.5631 20.1639 13.5631 20.1625 13.5631 20.161C13.5631 20.1595 13.5631 20.158 13.5631 20.1566C13.5631 20.1551 13.5631 20.1537 13.5631 20.1522C13.5631 20.1508 13.5631 20.1493 13.5631 20.1479C13.5631 20.1465 13.5631 20.1451 13.5631 20.1437C13.5631 20.1423 13.5631 20.1409 13.5631 20.1395C13.5631 20.1381 13.5631 20.1367 13.5631 20.1353C13.5631 20.1339 13.5631 20.1326 13.5631 20.1312C13.5631 20.1298 13.5631 20.1285 13.5631 20.1271C13.5631 20.1258 13.5631 20.1245 13.5631 20.1231C13.5631 20.1218 13.5631 20.1205 13.5631 20.1192C13.5631 20.1179 13.5631 20.1166 13.5631 20.1153C13.5631 20.114 13.5631 20.1127 13.5631 20.1114C13.5631 20.1101 13.5631 20.1089 13.5631 20.1076C13.5631 20.1064 13.5631 20.1051 13.5631 20.1039C13.5631 20.1026 13.5631 20.1014 13.5631 20.1002C13.5631 20.0989 13.5631 20.0977 13.5631 20.0965C13.5631 20.0953 13.5631 20.0941 13.5631 20.0929C13.5631 20.0917 13.5631 20.0905 13.5631 20.0894C13.5631 20.0882 13.5631 20.087 13.5631 20.0859C13.5631 20.0847 13.5631 20.0836 13.5631 20.0824C13.5631 20.0813 13.5631 20.0801 13.5631 20.079C13.5631 20.0779 13.5631 20.0768 13.5631 20.0757C13.5631 20.0746 13.5631 20.0735 13.5631 20.0724C13.5631 20.0713 13.5631 20.0702 13.5631 20.0692C13.5631 20.0681 13.5631 20.067 13.5631 20.066C13.5631 20.0649 13.5631 20.0639 13.5631 20.0629C13.5631 20.0618 13.5631 20.0608 13.5631 20.0598C13.5631 20.0588 13.5631 20.0577 13.5631 20.0568C13.5631 20.0558 13.5631 20.0548 13.5631 20.0538C13.5631 20.0528 13.5631 20.0518 13.5631 20.0509C13.5631 20.0499 13.5631 20.0489 13.5631 20.048C13.5631 20.0471 13.5631 20.0461 13.5631 20.0452C13.5631 20.0443 13.5631 20.0433 13.5631 20.0424C13.5631 20.0415 13.5631 20.0406 13.5631 20.0397C13.5631 20.0388 13.5631 20.038 13.5631 20.0371C13.5631 20.0362 13.5631 20.0354 13.5631 20.0345C13.5631 20.0336 13.5631 20.0328 13.5631 20.032C13.5631 20.0311 13.5631 20.0303 13.5631 20.0295C13.5631 20.0287 13.5631 20.0278 13.5631 20.0271C13.5631 20.0262 13.5631 20.0255 13.5631 20.0247C13.5631 20.0239 13.5631 20.0231 13.5631 20.0224C13.5631 20.0216 13.5631 20.0208 13.5631 20.0201C13.5631 20.0194 13.5631 20.0186 13.5631 20.0179C13.5631 20.0172 13.5631 20.0164 13.5631 20.0157C13.5631 20.015 13.5631 20.0143 13.5631 20.0136C13.5631 20.013 13.5631 20.0123 13.5631 20.0116C13.5631 20.0109 13.5631 20.0103 13.5631 20.0096C13.5631 20.009 13.5631 20.0083 13.5631 20.0077C13.5631 20.0071 13.5631 20.0064 13.5631 20.0058C13.5631 20.0052 13.5631 20.0046 13.5631 20.004C13.5631 20.0034 13.5631 20.0028 13.5631 20.0023C13.5631 20.0017 13.5631 20.0011 13.5631 20.0006C13.5631 20 13.5631 19.9995 13.5631 19.9989C13.5631 19.9984 13.5631 19.9979 13.5631 19.9973C13.5631 19.9968 13.5631 19.9963 13.5631 19.9958C13.5631 19.9953 13.5631 19.9948 13.5631 19.9944C13.5631 19.9939 13.5631 19.9934 13.5631 19.9929C13.5631 19.9925 13.5631 19.992 13.5631 19.9916C13.5631 19.9912 13.5631 19.9907 13.5631 19.9903C13.5631 19.9899 13.5631 19.9895 13.5631 19.9891C13.5631 19.9887 13.5631 19.9883 13.5631 19.9879C13.5631 19.9875 13.5631 19.9871 13.5631 19.9868C13.5631 19.9864 13.5631 19.9861 13.5631 19.9857C13.5631 19.9854 13.5631 19.985 13.5631 19.9847C13.5631 19.9844 13.5631 19.9841 13.5631 19.9838C13.5631 19.9835 13.5631 19.9832 13.5631 19.9829C13.5631 19.9826 13.5631 19.9823 13.5631 19.9821C13.5631 19.9818 13.5631 19.9816 13.5631 19.9813C13.5631 19.9811 13.5631 19.9808 13.5631 19.9806C13.5631 19.9804 13.5631 19.9802 13.5631 19.98C13.5631 19.9798 13.5631 19.9796 13.5631 19.9794C13.5631 19.9792 13.5631 19.979 13.5631 19.9789C13.5631 19.9787 13.5631 19.9786 13.5631 19.9784C13.5631 19.9783 13.5631 19.9781 13.5631 19.978C13.5631 19.9779 13.5631 19.9778 13.5631 19.9777C13.5631 19.9776 13.5631 19.9775 13.5631 19.9774C13.5631 19.9773 13.5631 19.9772 13.5631 19.9772C13.5631 19.9771 13.5631 19.9771 13.5631 19.977C13.5631 19.977 13.5631 19.977 13.5631 19.9769C13.5631 19.9769 13.5631 19.9769 12.8131 19.9769ZM1.5 25.1647C2.63997 25.1647 3.34689 25.4924 4.10898 25.8714C4.88975 26.2597 5.78072 26.7363 7.11737 26.7407L7.12239 25.2407C6.17781 25.2376 5.57681 24.9261 4.77693 24.5283C3.95836 24.1212 2.99596 23.6647 1.5 23.6647V25.1647ZM7.11737 26.7407C8.45361 26.7452 9.46569 26.2816 10.3255 25.8874C11.2029 25.4852 11.9072 25.1647 12.8131 25.1647V23.6647C11.5342 23.6647 10.5462 24.1361 9.70043 24.5238C8.83705 24.9196 8.09495 25.244 7.12239 25.2407L7.11737 26.7407ZM12.8131 25.1647C13.6301 25.1647 14.1597 25.4506 14.8031 25.8277C15.4475 26.2055 16.2431 26.7044 17.414 26.7404L17.4601 25.2411C16.7219 25.2184 16.2365 24.9293 15.5617 24.5337C14.8859 24.1375 14.0581 23.6647 12.8131 23.6647V25.1647ZM22.8163 24.9567C23.832 24.9988 24.3738 25.4856 25.4017 26.0599L26.1333 24.7504C25.3659 24.3216 24.3608 23.5194 22.8783 23.458L22.8163 24.9567ZM25.4017 26.0599C25.9769 26.3812 26.6545 26.68 27.5364 26.7391L27.6366 25.2424C27.0618 25.2039 26.6064 25.0147 26.1333 24.7504L25.4017 26.0599ZM26.5175 25.4051V17.0787H25.0175V25.4051H26.5175ZM25.4692 16.3906L18.7846 19.2888L19.3812 20.665L26.0658 17.7668L25.4692 16.3906ZM25.4691 17.7668L32.1514 20.665L32.7482 19.2888L26.0659 16.3906L25.4691 17.7668ZM17.414 26.7404C18.2902 26.7673 18.9991 26.5343 19.6107 26.2381C19.9103 26.0931 20.1916 25.9302 20.4484 25.7801C20.7125 25.6257 20.9481 25.4864 21.1911 25.3622L20.5083 24.0265C20.2192 24.1744 19.942 24.3386 19.6913 24.4852C19.4332 24.636 19.1977 24.7715 18.957 24.8881C18.4881 25.1152 18.0228 25.2584 17.4601 25.2411L17.414 26.7404ZM21.1911 25.3622C21.7066 25.0986 22.2036 24.9313 22.8163 24.9567L22.8783 23.458C21.9172 23.4182 21.1572 23.6949 20.5083 24.0265L21.1911 25.3622ZM21.5521 24.4313L18.7992 17.0811L17.3945 17.6072L20.1473 24.9574L21.5521 24.4313ZM27.5364 26.7391C29.1192 26.845 30.1277 26.1621 30.9983 25.6802L30.2719 24.3678C29.2991 24.9063 28.696 25.3134 27.6366 25.2424L27.5364 26.7391ZM30.9983 25.6802C31.7109 25.2857 32.4164 24.9573 33.5 24.9573V23.4573C32.0467 23.4573 31.0772 23.922 30.2719 24.3678L30.9983 25.6802ZM31.3409 25.2777L34.0328 17.7911L32.6212 17.2835L29.9294 24.7702L31.3409 25.2777ZM26.5175 13.8927V10.8758H25.0175V13.8927H26.5175ZM25.4597 13.2087L20.181 15.584L20.7965 16.9519L26.0752 14.5766L25.4597 13.2087ZM20.181 15.584L17.7891 16.6602L18.4046 18.0281L20.7965 16.9519L20.181 15.584ZM19.7388 10.8758V16.2679H21.2388V10.8758H19.7388ZM33.6527 16.8617L31.334 15.7438L30.6826 17.095L33.0013 18.2129L33.6527 16.8617ZM31.334 15.7438L26.0932 13.2171L25.4418 14.5682L30.6826 17.095L31.334 15.7438ZM30.2583 10.8758V16.4194H31.7583V10.8758H30.2583ZM25.7675 10.1258H23.1281V11.6258H25.7675V10.1258ZM23.1281 10.1258H20.4888V11.6258H23.1281V10.1258ZM23.8781 10.8758V7.90697H22.3781V10.8758H23.8781ZM25.7675 11.6258H28.3879V10.1258H25.7675V11.6258ZM28.3879 11.6258H31.0083V10.1258H28.3879V11.6258ZM29.1379 10.8758V7.90697H27.6379V10.8758H29.1379ZM28.3879 7.15697H25.758V8.65697H28.3879V7.15697ZM25.758 7.15697H23.1281V8.65697H25.758V7.15697ZM26.508 7.90697V6.00024H25.008V7.90697H26.508Z" fill="#AA8B62"/>
</svg>
