<svg width="34" height="32" viewBox="0 0 34 32" fill="none" xmlns="http://www.w3.org/2000/svg">
<path d="M1 16.1993C0.585786 16.1993 0.25 16.5351 0.25 16.9493C0.25 17.3635 0.585786 17.6993 1 17.6993V16.1993ZM14.7141 16.9493H15.4641C15.4641 16.5351 15.1283 16.1993 14.7141 16.1993V16.9493ZM14.7141 19.9769V20.7269C15.1283 20.7269 15.4641 20.3911 15.4641 19.9769H14.7141ZM1 19.2269C0.585786 19.2269 0.25 19.5627 0.25 19.9769C0.25 20.3911 0.585786 20.7269 1 20.7269V19.2269ZM1 23.6647C0.585786 23.6647 0.25 24.0005 0.25 24.4147C0.25 24.8289 0.585786 25.1647 1 25.1647V23.6647ZM6.61988 25.9907L6.61737 26.7407L6.61988 25.9907ZM16.9371 25.9907L16.9601 25.2411L16.9371 25.9907ZM22.3473 24.2073L22.3783 23.458L22.3473 24.2073ZM27.0865 25.9907L27.0364 26.7391L27.0865 25.9907ZM33 24.9573C33.4142 24.9573 33.75 24.6215 33.75 24.2073C33.75 23.7931 33.4142 23.4573 33 23.4573V24.9573ZM25.2675 25.4051L24.9017 26.0599L25.2675 25.4051ZM25.2675 17.0787L25.5659 16.3906C25.3756 16.3081 25.1595 16.3081 24.9692 16.3906L25.2675 17.0787ZM20.3497 24.6944L20.6911 25.3622L20.3497 24.6944ZM17.5969 17.3442L17.2891 16.6602C16.9285 16.8225 16.7558 17.2369 16.8945 17.6072L17.5969 17.3442ZM32.827 17.5373L33.5328 17.7911C33.6627 17.4297 33.4986 17.0285 33.1527 16.8617L32.827 17.5373ZM19.9888 10.8758V10.1258C19.5746 10.1258 19.2388 10.4616 19.2388 10.8758H19.9888ZM19.9888 16.2679L20.2965 16.9519L19.9888 16.2679ZM30.5083 10.8758H31.2583C31.2583 10.4616 30.9225 10.1258 30.5083 10.1258V10.8758ZM30.5083 16.4194L30.1826 17.095L30.5083 16.4194ZM22.6281 7.90697V7.15697C22.2139 7.15697 21.8781 7.49275 21.8781 7.90697H22.6281ZM27.8879 7.90697H28.6379C28.6379 7.49275 28.3021 7.15697 27.8879 7.15697V7.90697ZM26.008 6.00024C26.008 5.58603 25.6722 5.25024 25.258 5.25024C24.8438 5.25024 24.508 5.58603 24.508 6.00024H26.008ZM1 17.6993H14.7141V16.1993H1V17.6993ZM13.9641 16.9493V19.9769H15.4641V16.9493H13.9641ZM2.50979 19.2269H1V20.7269H2.50979V19.2269ZM1.75979 19.9769V24.6128H3.25979V19.9769H1.75979ZM5.11005 19.2269H2.50979V20.7269H5.11005V19.2269ZM4.36005 19.9769V25.7272H5.86005V19.9769H4.36005ZM9.91207 19.2269H5.11005V20.7269H9.91207V19.2269ZM9.16207 19.9769V25.024H10.6621V19.9769H9.16207ZM14.7141 19.2269H12.3131V20.7269H14.7141V19.2269ZM12.3131 19.2269H9.91207V20.7269H12.3131V19.2269ZM12.3131 19.9769C11.5631 19.9769 11.5631 19.9769 11.5631 19.9769C11.5631 19.977 11.5631 19.977 11.5631 19.977C11.5631 19.9771 11.5631 19.9771 11.5631 19.9772C11.5631 19.9772 11.5631 19.9773 11.5631 19.9774C11.5631 19.9775 11.5631 19.9776 11.5631 19.9777C11.5631 19.9778 11.5631 19.9779 11.5631 19.978C11.5631 19.9781 11.5631 19.9783 11.5631 19.9784C11.5631 19.9786 11.5631 19.9787 11.5631 19.9789C11.5631 19.979 11.5631 19.9792 11.5631 19.9794C11.5631 19.9796 11.5631 19.9798 11.5631 19.98C11.5631 19.9802 11.5631 19.9804 11.5631 19.9806C11.5631 19.9808 11.5631 19.9811 11.5631 19.9813C11.5631 19.9816 11.5631 19.9818 11.5631 19.9821C11.5631 19.9823 11.5631 19.9826 11.5631 19.9829C11.5631 19.9832 11.5631 19.9835 11.5631 19.9838C11.5631 19.9841 11.5631 19.9844 11.5631 19.9847C11.5631 19.985 11.5631 19.9854 11.5631 19.9857C11.5631 19.9861 11.5631 19.9864 11.5631 19.9868C11.5631 19.9871 11.5631 19.9875 11.5631 19.9879C11.5631 19.9883 11.5631 19.9887 11.5631 19.9891C11.5631 19.9895 11.5631 19.9899 11.5631 19.9903C11.5631 19.9907 11.5631 19.9912 11.5631 19.9916C11.5631 19.992 11.5631 19.9925 11.5631 19.9929C11.5631 19.9934 11.5631 19.9939 11.5631 19.9944C11.5631 19.9948 11.5631 19.9953 11.5631 19.9958C11.5631 19.9963 11.5631 19.9968 11.5631 19.9973C11.5631 19.9979 11.5631 19.9984 11.5631 19.9989C11.5631 19.9995 11.5631 20 11.5631 20.0006C11.5631 20.0011 11.5631 20.0017 11.5631 20.0023C11.5631 20.0028 11.5631 20.0034 11.5631 20.004C11.5631 20.0046 11.5631 20.0052 11.5631 20.0058C11.5631 20.0064 11.5631 20.0071 11.5631 20.0077C11.5631 20.0083 11.5631 20.009 11.5631 20.0096C11.5631 20.0103 11.5631 20.0109 11.5631 20.0116C11.5631 20.0123 11.5631 20.013 11.5631 20.0136C11.5631 20.0143 11.5631 20.015 11.5631 20.0157C11.5631 20.0164 11.5631 20.0172 11.5631 20.0179C11.5631 20.0186 11.5631 20.0194 11.5631 20.0201C11.5631 20.0208 11.5631 20.0216 11.5631 20.0224C11.5631 20.0231 11.5631 20.0239 11.5631 20.0247C11.5631 20.0255 11.5631 20.0262 11.5631 20.0271C11.5631 20.0278 11.5631 20.0287 11.5631 20.0295C11.5631 20.0303 11.5631 20.0311 11.5631 20.032C11.5631 20.0328 11.5631 20.0336 11.5631 20.0345C11.5631 20.0354 11.5631 20.0362 11.5631 20.0371C11.5631 20.038 11.5631 20.0388 11.5631 20.0397C11.5631 20.0406 11.5631 20.0415 11.5631 20.0424C11.5631 20.0433 11.5631 20.0443 11.5631 20.0452C11.5631 20.0461 11.5631 20.0471 11.5631 20.048C11.5631 20.0489 11.5631 20.0499 11.5631 20.0509C11.5631 20.0518 11.5631 20.0528 11.5631 20.0538C11.5631 20.0548 11.5631 20.0558 11.5631 20.0568C11.5631 20.0577 11.5631 20.0588 11.5631 20.0598C11.5631 20.0608 11.5631 20.0618 11.5631 20.0629C11.5631 20.0639 11.5631 20.0649 11.5631 20.066C11.5631 20.067 11.5631 20.0681 11.5631 20.0692C11.5631 20.0702 11.5631 20.0713 11.5631 20.0724C11.5631 20.0735 11.5631 20.0746 11.5631 20.0757C11.5631 20.0768 11.5631 20.0779 11.5631 20.079C11.5631 20.0801 11.5631 20.0813 11.5631 20.0824C11.5631 20.0836 11.5631 20.0847 11.5631 20.0859C11.5631 20.087 11.5631 20.0882 11.5631 20.0894C11.5631 20.0905 11.5631 20.0917 11.5631 20.0929C11.5631 20.0941 11.5631 20.0953 11.5631 20.0965C11.5631 20.0977 11.5631 20.0989 11.5631 20.1002C11.5631 20.1014 11.5631 20.1026 11.5631 20.1039C11.5631 20.1051 11.5631 20.1064 11.5631 20.1076C11.5631 20.1089 11.5631 20.1101 11.5631 20.1114C11.5631 20.1127 11.5631 20.114 11.5631 20.1153C11.5631 20.1166 11.5631 20.1179 11.5631 20.1192C11.5631 20.1205 11.5631 20.1218 11.5631 20.1231C11.5631 20.1245 11.5631 20.1258 11.5631 20.1271C11.5631 20.1285 11.5631 20.1298 11.5631 20.1312C11.5631 20.1326 11.5631 20.1339 11.5631 20.1353C11.5631 20.1367 11.5631 20.1381 11.5631 20.1395C11.5631 20.1409 11.5631 20.1423 11.5631 20.1437C11.5631 20.1451 11.5631 20.1465 11.5631 20.1479C11.5631 20.1493 11.5631 20.1508 11.5631 20.1522C11.5631 20.1537 11.5631 20.1551 11.5631 20.1566C11.5631 20.158 11.5631 20.1595 11.5631 20.161C11.5631 20.1625 11.5631 20.1639 11.5631 20.1654C11.5631 20.1669 11.5631 20.1684 11.5631 20.1699C11.5631 20.1714 11.5631 20.173 11.5631 20.1745C11.5631 20.176 11.5631 20.1775 11.5631 20.1791C11.5631 20.1806 11.5631 20.1822 11.5631 20.1837C11.5631 20.1853 11.5631 20.1868 11.5631 20.1884C11.5631 20.19 11.5631 20.1916 11.5631 20.1932C11.5631 20.1947 11.5631 20.1963 11.5631 20.1979C11.5631 20.1995 11.5631 20.2012 11.5631 20.2028C11.5631 20.2044 11.5631 20.206 11.5631 20.2077C11.5631 20.2093 11.5631 20.2109 11.5631 20.2126C11.5631 20.2142 11.5631 20.2159 11.5631 20.2176C11.5631 20.2192 11.5631 20.2209 11.5631 20.2226C11.5631 20.2243 11.5631 20.226 11.5631 20.2277C11.5631 20.2294 11.5631 20.2311 11.5631 20.2328C11.5631 20.2345 11.5631 20.2362 11.5631 20.2379C11.5631 20.2397 11.5631 20.2414 11.5631 20.2431C11.5631 20.2449 11.5631 20.2466 11.5631 20.2484C11.5631 20.2502 11.5631 20.2519 11.5631 20.2537C11.5631 20.2555 11.5631 20.2573 11.5631 20.259C11.5631 20.2608 11.5631 20.2626 11.5631 20.2644C11.5631 20.2662 11.5631 20.2681 11.5631 20.2699C11.5631 20.2717 11.5631 20.2735 11.5631 20.2754C11.5631 20.2772 11.5631 20.279 11.5631 20.2809C11.5631 20.2827 11.5631 20.2846 11.5631 20.2865C11.5631 20.2883 11.5631 20.2902 11.5631 20.2921C11.5631 20.294 11.5631 20.2958 11.5631 20.2977C11.5631 20.2996 11.5631 20.3015 11.5631 20.3034C11.5631 20.3053 11.5631 20.3073 11.5631 20.3092C11.5631 20.3111 11.5631 20.313 11.5631 20.315C11.5631 20.3169 11.5631 20.3189 11.5631 20.3208C11.5631 20.3228 11.5631 20.3247 11.5631 20.3267C11.5631 20.3287 11.5631 20.3306 11.5631 20.3326C11.5631 20.3346 11.5631 20.3366 11.5631 20.3386C11.5631 20.3406 11.5631 20.3426 11.5631 20.3446C11.5631 20.3466 11.5631 20.3486 11.5631 20.3507C11.5631 20.3527 11.5631 20.3547 11.5631 20.3568C11.5631 20.3588 11.5631 20.3608 11.5631 20.3629C11.5631 20.3649 11.5631 20.367 11.5631 20.3691C11.5631 20.3711 11.5631 20.3732 11.5631 20.3753C11.5631 20.3774 11.5631 20.3795 11.5631 20.3816C11.5631 20.3837 11.5631 20.3858 11.5631 20.3879C11.5631 20.39 11.5631 20.3921 11.5631 20.3942C11.5631 20.3963 11.5631 20.3985 11.5631 20.4006C11.5631 20.4028 11.5631 20.4049 11.5631 20.407C11.5631 20.4092 11.5631 20.4114 11.5631 20.4135C11.5631 20.4157 11.5631 20.4179 11.5631 20.42C11.5631 20.4222 11.5631 20.4244 11.5631 20.4266C11.5631 20.4288 11.5631 20.431 11.5631 20.4332C11.5631 20.4354 11.5631 20.4376 11.5631 20.4398C11.5631 20.4421 11.5631 20.4443 11.5631 20.4465C11.5631 20.4487 11.5631 20.451 11.5631 20.4532C11.5631 20.4555 11.5631 20.4577 11.5631 20.46C11.5631 20.4623 11.5631 20.4645 11.5631 20.4668C11.5631 20.4691 11.5631 20.4713 11.5631 20.4736C11.5631 20.4759 11.5631 20.4782 11.5631 20.4805C11.5631 20.4828 11.5631 20.4851 11.5631 20.4874C11.5631 20.4897 11.5631 20.4921 11.5631 20.4944C11.5631 20.4967 11.5631 20.499 11.5631 20.5014C11.5631 20.5037 11.5631 20.5061 11.5631 20.5084C11.5631 20.5108 11.5631 20.5131 11.5631 20.5155C11.5631 20.5179 11.5631 20.5202 11.5631 20.5226C11.5631 20.525 11.5631 20.5274 11.5631 20.5298C11.5631 20.5322 11.5631 20.5346 11.5631 20.537C11.5631 20.5394 11.5631 20.5418 11.5631 20.5442C11.5631 20.5466 11.5631 20.549 11.5631 20.5515C11.5631 20.5539 11.5631 20.5563 11.5631 20.5588C11.5631 20.5612 11.5631 20.5637 11.5631 20.5661C11.5631 20.5686 11.5631 20.571 11.5631 20.5735C11.5631 20.576 11.5631 20.5784 11.5631 20.5809C11.5631 20.5834 11.5631 20.5859 11.5631 20.5884C11.5631 20.5909 11.5631 20.5934 11.5631 20.5959C11.5631 20.5984 11.5631 20.6009 11.5631 20.6034C11.5631 20.6059 11.5631 20.6084 11.5631 20.6109C11.5631 20.6135 11.5631 20.616 11.5631 20.6186C11.5631 20.6211 11.5631 20.6236 11.5631 20.6262C11.5631 20.6287 11.5631 20.6313 11.5631 20.6339C11.5631 20.6364 11.5631 20.639 11.5631 20.6416C11.5631 20.6442 11.5631 20.6467 11.5631 20.6493C11.5631 20.6519 11.5631 20.6545 11.5631 20.6571C11.5631 20.6597 11.5631 20.6623 11.5631 20.6649C11.5631 20.6675 11.5631 20.6702 11.5631 20.6728C11.5631 20.6754 11.5631 20.678 11.5631 20.6807C11.5631 20.6833 11.5631 20.686 11.5631 20.6886C11.5631 20.6912 11.5631 20.6939 11.5631 20.6966C11.5631 20.6992 11.5631 20.7019 11.5631 20.7046C11.5631 20.7072 11.5631 20.7099 11.5631 20.7126C11.5631 20.7153 11.5631 20.718 11.5631 20.7206C11.5631 20.7233 11.5631 20.726 11.5631 20.7287C11.5631 20.7315 11.5631 20.7342 11.5631 20.7369C11.5631 20.7396 11.5631 20.7423 11.5631 20.745C11.5631 20.7478 11.5631 20.7505 11.5631 20.7532C11.5631 20.756 11.5631 20.7587 11.5631 20.7615C11.5631 20.7642 11.5631 20.767 11.5631 20.7697C11.5631 20.7725 11.5631 20.7753 11.5631 20.778C11.5631 20.7808 11.5631 20.7836 11.5631 20.7864C11.5631 20.7892 11.5631 20.792 11.5631 20.7947C11.5631 20.7975 11.5631 20.8003 11.5631 20.8031C11.5631 20.806 11.5631 20.8088 11.5631 20.8116C11.5631 20.8144 11.5631 20.8172 11.5631 20.82C11.5631 20.8229 11.5631 20.8257 11.5631 20.8285C11.5631 20.8314 11.5631 20.8342 11.5631 20.8371C11.5631 20.8399 11.5631 20.8428 11.5631 20.8456C11.5631 20.8485 11.5631 20.8514 11.5631 20.8542C11.5631 20.8571 11.5631 20.86 11.5631 20.8628C11.5631 20.8657 11.5631 20.8686 11.5631 20.8715C11.5631 20.8744 11.5631 20.8773 11.5631 20.8802C11.5631 20.8831 11.5631 20.886 11.5631 20.8889C11.5631 20.8918 11.5631 20.8947 11.5631 20.8977C11.5631 20.9006 11.5631 20.9035 11.5631 20.9064C11.5631 20.9094 11.5631 20.9123 11.5631 20.9152C11.5631 20.9182 11.5631 20.9211 11.5631 20.9241C11.5631 20.927 11.5631 20.93 11.5631 20.933C11.5631 20.9359 11.5631 20.9389 11.5631 20.9419C11.5631 20.9448 11.5631 20.9478 11.5631 20.9508C11.5631 20.9538 11.5631 20.9568 11.5631 20.9598C11.5631 20.9628 11.5631 20.9657 11.5631 20.9688C11.5631 20.9718 11.5631 20.9748 11.5631 20.9778C11.5631 20.9808 11.5631 20.9838 11.5631 20.9868C11.5631 20.9898 11.5631 20.9929 11.5631 20.9959C11.5631 20.9989 11.5631 21.002 11.5631 21.005C11.5631 21.0081 11.5631 21.0111 11.5631 21.0141C11.5631 21.0172 11.5631 21.0203 11.5631 21.0233C11.5631 21.0264 11.5631 21.0294 11.5631 21.0325C11.5631 21.0356 11.5631 21.0387 11.5631 21.0417C11.5631 21.0448 11.5631 21.0479 11.5631 21.051C11.5631 21.0541 11.5631 21.0572 11.5631 21.0603C11.5631 21.0634 11.5631 21.0665 11.5631 21.0696C11.5631 21.0727 11.5631 21.0758 11.5631 21.0789C11.5631 21.082 11.5631 21.0851 11.5631 21.0883C11.5631 21.0914 11.5631 21.0945 11.5631 21.0977C11.5631 21.1008 11.5631 21.1039 11.5631 21.1071C11.5631 21.1102 11.5631 21.1134 11.5631 21.1165C11.5631 21.1197 11.5631 21.1228 11.5631 21.126C11.5631 21.1292 11.5631 21.1323 11.5631 21.1355C11.5631 21.1387 11.5631 21.1418 11.5631 21.145C11.5631 21.1482 11.5631 21.1514 11.5631 21.1546C11.5631 21.1578 11.5631 21.1609 11.5631 21.1641C11.5631 21.1673 11.5631 21.1705 11.5631 21.1737C11.5631 21.177 11.5631 21.1802 11.5631 21.1834C11.5631 21.1866 11.5631 21.1898 11.5631 21.193C11.5631 21.1963 11.5631 21.1995 11.5631 21.2027C11.5631 21.2059 11.5631 21.2092 11.5631 21.2124C11.5631 21.2157 11.5631 21.2189 11.5631 21.2221C11.5631 21.2254 11.5631 21.2286 11.5631 21.2319C11.5631 21.2352 11.5631 21.2384 11.5631 21.2417C11.5631 21.245 11.5631 21.2482 11.5631 21.2515C11.5631 21.2548 11.5631 21.258 11.5631 21.2613C11.5631 21.2646 11.5631 21.2679 11.5631 21.2712C11.5631 21.2745 11.5631 21.2778 11.5631 21.2811C11.5631 21.2844 11.5631 21.2877 11.5631 21.291C11.5631 21.2943 11.5631 21.2976 11.5631 21.3009C11.5631 21.3042 11.5631 21.3075 11.5631 21.3108C11.5631 21.3142 11.5631 21.3175 11.5631 21.3208C11.5631 21.3241 11.5631 21.3275 11.5631 21.3308C11.5631 21.3341 11.5631 21.3375 11.5631 21.3408C11.5631 21.3442 11.5631 21.3475 11.5631 21.3509C11.5631 21.3542 11.5631 21.3576 11.5631 21.3609C11.5631 21.3643 11.5631 21.3677 11.5631 21.371C11.5631 21.3744 11.5631 21.3778 11.5631 21.3812C11.5631 21.3845 11.5631 21.3879 11.5631 21.3913C11.5631 21.3947 11.5631 21.3981 11.5631 21.4014C11.5631 21.4048 11.5631 21.4082 11.5631 21.4116C11.5631 21.415 11.5631 21.4184 11.5631 21.4218C11.5631 21.4252 11.5631 21.4286 11.5631 21.432C11.5631 21.4355 11.5631 21.4389 11.5631 21.4423C11.5631 21.4457 11.5631 21.4491 11.5631 21.4526C11.5631 21.456 11.5631 21.4594 11.5631 21.4628C11.5631 21.4663 11.5631 21.4697 11.5631 21.4732C11.5631 21.4766 11.5631 21.48 11.5631 21.4835C11.5631 21.4869 11.5631 21.4904 11.5631 21.4938C11.5631 21.4973 11.5631 21.5008 11.5631 21.5042C11.5631 21.5077 11.5631 21.5111 11.5631 21.5146C11.5631 21.5181 11.5631 21.5215 11.5631 21.525C11.5631 21.5285 11.5631 21.532 11.5631 21.5354C11.5631 21.5389 11.5631 21.5424 11.5631 21.5459C11.5631 21.5494 11.5631 21.5529 11.5631 21.5564C11.5631 21.5599 11.5631 21.5634 11.5631 21.5669C11.5631 21.5704 11.5631 21.5739 11.5631 21.5774C11.5631 21.5809 11.5631 21.5844 11.5631 21.5879C11.5631 21.5914 11.5631 21.5949 11.5631 21.5985C11.5631 21.602 11.5631 21.6055 11.5631 21.609C11.5631 21.6126 11.5631 21.6161 11.5631 21.6196C11.5631 21.6231 11.5631 21.6267 11.5631 21.6302C11.5631 21.6338 11.5631 21.6373 11.5631 21.6408C11.5631 21.6444 11.5631 21.6479 11.5631 21.6515C11.5631 21.655 11.5631 21.6586 11.5631 21.6622C11.5631 21.6657 11.5631 21.6693 11.5631 21.6728C11.5631 21.6764 11.5631 21.68 11.5631 21.6835C11.5631 21.6871 11.5631 21.6907 11.5631 21.6942C11.5631 21.6978 11.5631 21.7014 11.5631 21.705C11.5631 21.7086 11.5631 21.7121 11.5631 21.7157C11.5631 21.7193 11.5631 21.7229 11.5631 21.7265C11.5631 21.7301 11.5631 21.7337 11.5631 21.7373C11.5631 21.7409 11.5631 21.7445 11.5631 21.7481C11.5631 21.7517 11.5631 21.7553 11.5631 21.7589C11.5631 21.7625 11.5631 21.7661 11.5631 21.7697C11.5631 21.7734 11.5631 21.777 11.5631 21.7806C11.5631 21.7842 11.5631 21.7878 11.5631 21.7915C11.5631 21.7951 11.5631 21.7987 11.5631 21.8023C11.5631 21.806 11.5631 21.8096 11.5631 21.8132C11.5631 21.8169 11.5631 21.8205 11.5631 21.8242C11.5631 21.8278 11.5631 21.8314 11.5631 21.8351C11.5631 21.8387 11.5631 21.8424 11.5631 21.846C11.5631 21.8497 11.5631 21.8533 11.5631 21.857C11.5631 21.8606 11.5631 21.8643 11.5631 21.868C11.5631 21.8716 11.5631 21.8753 11.5631 21.879C11.5631 21.8826 11.5631 21.8863 11.5631 21.89C11.5631 21.8936 11.5631 21.8973 11.5631 21.901C11.5631 21.9047 11.5631 21.9083 11.5631 21.912C11.5631 21.9157 11.5631 21.9194 11.5631 21.9231C11.5631 21.9268 11.5631 21.9304 11.5631 21.9341C11.5631 21.9378 11.5631 21.9415 11.5631 21.9452C11.5631 21.9489 11.5631 21.9526 11.5631 21.9563C11.5631 21.96 11.5631 21.9637 11.5631 21.9674C11.5631 21.9711 11.5631 21.9748 11.5631 21.9785C11.5631 21.9822 11.5631 21.9859 11.5631 21.9897C11.5631 21.9934 11.5631 21.9971 11.5631 22.0008C11.5631 22.0045 11.5631 22.0082 11.5631 22.012C11.5631 22.0157 11.5631 22.0194 11.5631 22.0231C11.5631 22.0268 11.5631 22.0306 11.5631 22.0343C11.5631 22.038 11.5631 22.0418 11.5631 22.0455C11.5631 22.0492 11.5631 22.053 11.5631 22.0567C11.5631 22.0604 11.5631 22.0642 11.5631 22.0679C11.5631 22.0717 11.5631 22.0754 11.5631 22.0792C11.5631 22.0829 11.5631 22.0867 11.5631 22.0904C11.5631 22.0942 11.5631 22.0979 11.5631 22.1017C11.5631 22.1054 11.5631 22.1092 11.5631 22.1129C11.5631 22.1167 11.5631 22.1204 11.5631 22.1242C11.5631 22.128 11.5631 22.1317 11.5631 22.1355C11.5631 22.1393 11.5631 22.143 11.5631 22.1468C11.5631 22.1506 11.5631 22.1543 11.5631 22.1581C11.5631 22.1619 11.5631 22.1656 11.5631 22.1694C11.5631 22.1732 11.5631 22.177 11.5631 22.1808C11.5631 22.1845 11.5631 22.1883 11.5631 22.1921C11.5631 22.1959 11.5631 22.1997 11.5631 22.2034C11.5631 22.2072 11.5631 22.211 11.5631 22.2148C11.5631 22.2186 11.5631 22.2224 11.5631 22.2262C11.5631 22.23 11.5631 22.2338 11.5631 22.2376C11.5631 22.2414 11.5631 22.2452 11.5631 22.249C11.5631 22.2528 11.5631 22.2565 11.5631 22.2604C11.5631 22.2642 11.5631 22.268 11.5631 22.2718C11.5631 22.2756 11.5631 22.2794 11.5631 22.2832C11.5631 22.287 11.5631 22.2908 11.5631 22.2946C11.5631 22.2984 11.5631 22.3022 11.5631 22.306C11.5631 22.3099 11.5631 22.3137 11.5631 22.3175C11.5631 22.3213 11.5631 22.3251 11.5631 22.3289C11.5631 22.3328 11.5631 22.3366 11.5631 22.3404C11.5631 22.3442 11.5631 22.348 11.5631 22.3519C11.5631 22.3557 11.5631 22.3595 11.5631 22.3633C11.5631 22.3672 11.5631 22.371 11.5631 22.3748C11.5631 22.3787 11.5631 22.3825 11.5631 22.3863C11.5631 22.3902 11.5631 22.394 11.5631 22.3978C11.5631 22.4017 11.5631 22.4055 11.5631 22.4093C11.5631 22.4132 11.5631 22.417 11.5631 22.4208C11.5631 22.4247 11.5631 22.4285 11.5631 22.4324C11.5631 22.4362 11.5631 22.44 11.5631 22.4439C11.5631 22.4477 11.5631 22.4516 11.5631 22.4554C11.5631 22.4593 11.5631 22.4631 11.5631 22.467C11.5631 22.4708 11.5631 22.4747 11.5631 22.4785C11.5631 22.4824 11.5631 22.4862 11.5631 22.4901C11.5631 22.4939 11.5631 22.4978 11.5631 22.5016C11.5631 22.5055 11.5631 22.5093 11.5631 22.5132C11.5631 22.517 11.5631 22.5209 11.5631 22.5247C11.5631 22.5286 11.5631 22.5325 11.5631 22.5363C11.5631 22.5402 11.5631 22.544 11.5631 22.5479C11.5631 22.5518 11.5631 22.5556 11.5631 22.5595C11.5631 22.5633 11.5631 22.5672 11.5631 22.5711C11.5631 22.5749 11.5631 22.5788 11.5631 22.5827C11.5631 22.5865 11.5631 22.5904 11.5631 22.5943C11.5631 22.5981 11.5631 22.602 11.5631 22.6059C11.5631 22.6097 11.5631 22.6136 11.5631 22.6175C11.5631 22.6213 11.5631 22.6252 11.5631 22.6291C11.5631 22.633 11.5631 22.6368 11.5631 22.6407C11.5631 22.6446 11.5631 22.6484 11.5631 22.6523C11.5631 22.6562 11.5631 22.6601 11.5631 22.6639C11.5631 22.6678 11.5631 22.6717 11.5631 22.6756C11.5631 22.6794 11.5631 22.6833 11.5631 22.6872C11.5631 22.6911 11.5631 22.695 11.5631 22.6988C11.5631 22.7027 11.5631 22.7066 11.5631 22.7105C11.5631 22.7143 11.5631 22.7182 11.5631 22.7221C11.5631 22.726 11.5631 22.7299 11.5631 22.7337C11.5631 22.7376 11.5631 22.7415 11.5631 22.7454C11.5631 22.7493 11.5631 22.7532 11.5631 22.757C11.5631 22.7609 11.5631 22.7648 11.5631 22.7687C11.5631 22.7726 11.5631 22.7764 11.5631 22.7803C11.5631 22.7842 11.5631 22.7881 11.5631 22.792C11.5631 22.7959 11.5631 22.7997 11.5631 22.8036C11.5631 22.8075 11.5631 22.8114 11.5631 22.8153C11.5631 22.8192 11.5631 22.8231 11.5631 22.8269C11.5631 22.8308 11.5631 22.8347 11.5631 22.8386C11.5631 22.8425 11.5631 22.8464 11.5631 22.8503C11.5631 22.8541 11.5631 22.858 11.5631 22.8619C11.5631 22.8658 11.5631 22.8697 11.5631 22.8736C11.5631 22.8775 11.5631 22.8813 11.5631 22.8852C11.5631 22.8891 11.5631 22.893 11.5631 22.8969C11.5631 22.9008 11.5631 22.9047 11.5631 22.9086C11.5631 22.9124 11.5631 22.9163 11.5631 22.9202C11.5631 22.9241 11.5631 22.928 11.5631 22.9319C11.5631 22.9358 11.5631 22.9396 11.5631 22.9435C11.5631 22.9474 11.5631 22.9513 11.5631 22.9552C11.5631 22.9591 11.5631 22.963 11.5631 22.9668C11.5631 22.9707 11.5631 22.9746 11.5631 22.9785C11.5631 22.9824 11.5631 22.9863 11.5631 22.9902C11.5631 22.994 11.5631 22.9979 11.5631 23.0018C11.5631 23.0057 11.5631 23.0096 11.5631 23.0135C11.5631 23.0173 11.5631 23.0212 11.5631 23.0251C11.5631 23.029 11.5631 23.0329 11.5631 23.0368C11.5631 23.0406 11.5631 23.0445 11.5631 23.0484C11.5631 23.0523 11.5631 23.0562 11.5631 23.0601C11.5631 23.0639 11.5631 23.0678 11.5631 23.0717C11.5631 23.0756 11.5631 23.0795 11.5631 23.0833C11.5631 23.0872 11.5631 23.0911 11.5631 23.095C11.5631 23.0989 11.5631 23.1027 11.5631 23.1066C11.5631 23.1105 11.5631 23.1144 11.5631 23.1183C11.5631 23.1221 11.5631 23.126 11.5631 23.1299C11.5631 23.1338 11.5631 23.1376 11.5631 23.1415C11.5631 23.1454 11.5631 23.1493 11.5631 23.1531C11.5631 23.157 11.5631 23.1609 11.5631 23.1648C11.5631 23.1686 11.5631 23.1725 11.5631 23.1764C11.5631 23.1802 11.5631 23.1841 11.5631 23.188C11.5631 23.1919 11.5631 23.1957 11.5631 23.1996C11.5631 23.2035 11.5631 23.2073 11.5631 23.2112C11.5631 23.2151 11.5631 23.2189 11.5631 23.2228C11.5631 23.2267 11.5631 23.2305 11.5631 23.2344C11.5631 23.2383 11.5631 23.2421 11.5631 23.246C11.5631 23.2498 11.5631 23.2537 11.5631 23.2576C11.5631 23.2614 11.5631 23.2653 11.5631 23.2692C11.5631 23.273 11.5631 23.2769 11.5631 23.2807C11.5631 23.2846 11.5631 23.2884 11.5631 23.2923C11.5631 23.2962 11.5631 23.3 11.5631 23.3039C11.5631 23.3077 11.5631 23.3116 11.5631 23.3154C11.5631 23.3193 11.5631 23.3231 11.5631 23.327C11.5631 23.3308 11.5631 23.3347 11.5631 23.3385C11.5631 23.3424 11.5631 23.3462 11.5631 23.3501C11.5631 23.3539 11.5631 23.3578 11.5631 23.3616C11.5631 23.3654 11.5631 23.3693 11.5631 23.3731C11.5631 23.377 11.5631 23.3808 11.5631 23.3847C11.5631 23.3885 11.5631 23.3923 11.5631 23.3962C11.5631 23.4 11.5631 23.4038 11.5631 23.4077C11.5631 23.4115 11.5631 23.4153 11.5631 23.4192C11.5631 23.423 11.5631 23.4268 11.5631 23.4307C11.5631 23.4345 11.5631 23.4383 11.5631 23.4422C11.5631 23.446 11.5631 23.4498 11.5631 23.4536C11.5631 23.4575 11.5631 23.4613 11.5631 23.4651C11.5631 23.4689 11.5631 23.4728 11.5631 23.4766C11.5631 23.4804 11.5631 23.4842 11.5631 23.488C11.5631 23.4918 11.5631 23.4957 11.5631 23.4995C11.5631 23.5033 11.5631 23.5071 11.5631 23.5109C11.5631 23.5147 11.5631 23.5185 11.5631 23.5223C11.5631 23.5262 11.5631 23.53 11.5631 23.5338C11.5631 23.5376 11.5631 23.5414 11.5631 23.5452C11.5631 23.549 11.5631 23.5528 11.5631 23.5566C11.5631 23.5604 11.5631 23.5642 11.5631 23.568C11.5631 23.5718 11.5631 23.5756 11.5631 23.5794C11.5631 23.5832 11.5631 23.5869 11.5631 23.5907C11.5631 23.5945 11.5631 23.5983 11.5631 23.6021C11.5631 23.6059 11.5631 23.6097 11.5631 23.6135C11.5631 23.6172 11.5631 23.621 11.5631 23.6248C11.5631 23.6286 11.5631 23.6324 11.5631 23.6361C11.5631 23.6399 11.5631 23.6437 11.5631 23.6475C11.5631 23.6512 11.5631 23.655 11.5631 23.6588C11.5631 23.6625 11.5631 23.6663 11.5631 23.6701C11.5631 23.6738 11.5631 23.6776 11.5631 23.6814C11.5631 23.6851 11.5631 23.6889 11.5631 23.6927C11.5631 23.6964 11.5631 23.7002 11.5631 23.7039C11.5631 23.7077 11.5631 23.7114 11.5631 23.7152C11.5631 23.7189 11.5631 23.7227 11.5631 23.7264C11.5631 23.7302 11.5631 23.7339 11.5631 23.7377C11.5631 23.7414 11.5631 23.7452 11.5631 23.7489C11.5631 23.7526 11.5631 23.7564 11.5631 23.7601C11.5631 23.7638 11.5631 23.7676 11.5631 23.7713C11.5631 23.775 11.5631 23.7788 11.5631 23.7825C11.5631 23.7862 11.5631 23.7899 11.5631 23.7937C11.5631 23.7974 11.5631 23.8011 11.5631 23.8048C11.5631 23.8085 11.5631 23.8123 11.5631 23.816C11.5631 23.8197 11.5631 23.8234 11.5631 23.8271C11.5631 23.8308 11.5631 23.8345 11.5631 23.8382C11.5631 23.8419 11.5631 23.8456 11.5631 23.8493C11.5631 23.853 11.5631 23.8567 11.5631 23.8604C11.5631 23.8641 11.5631 23.8678 11.5631 23.8715C11.5631 23.8752 11.5631 23.8789 11.5631 23.8826C11.5631 23.8863 11.5631 23.89 11.5631 23.8936C11.5631 23.8973 11.5631 23.901 11.5631 23.9047C11.5631 23.9084 11.5631 23.912 11.5631 23.9157C11.5631 23.9194 11.5631 23.9231 11.5631 23.9267C11.5631 23.9304 11.5631 23.9341 11.5631 23.9377C11.5631 23.9414 11.5631 23.945 11.5631 23.9487C11.5631 23.9524 11.5631 23.956 11.5631 23.9597C11.5631 23.9633 11.5631 23.967 11.5631 23.9706C11.5631 23.9743 11.5631 23.9779 11.5631 23.9816C11.5631 23.9852 11.5631 23.9888 11.5631 23.9925C11.5631 23.9961 11.5631 23.9997 11.5631 24.0034C11.5631 24.007 11.5631 24.0106 11.5631 24.0143C11.5631 24.0179 11.5631 24.0215 11.5631 24.0251C11.5631 24.0288 11.5631 24.0324 11.5631 24.036C11.5631 24.0396 11.5631 24.0432 11.5631 24.0468C11.5631 24.0504 11.5631 24.0541 11.5631 24.0577C11.5631 24.0613 11.5631 24.0649 11.5631 24.0685C11.5631 24.0721 11.5631 24.0757 11.5631 24.0793C11.5631 24.0829 11.5631 24.0864 11.5631 24.09C11.5631 24.0936 11.5631 24.0972 11.5631 24.1008C11.5631 24.1044 11.5631 24.108 11.5631 24.1115C11.5631 24.1151 11.5631 24.1187 11.5631 24.1223C11.5631 24.1258 11.5631 24.1294 11.5631 24.133C11.5631 24.1365 11.5631 24.1401 11.5631 24.1436C11.5631 24.1472 11.5631 24.1508 11.5631 24.1543C11.5631 24.1579 11.5631 24.1614 11.5631 24.165C11.5631 24.1685 11.5631 24.1721 11.5631 24.1756C11.5631 24.1791 11.5631 24.1827 11.5631 24.1862C11.5631 24.1897 11.5631 24.1933 11.5631 24.1968C11.5631 24.2003 11.5631 24.2039 11.5631 24.2074C11.5631 24.2109 11.5631 24.2144 11.5631 24.2179C11.5631 24.2214 11.5631 24.225 11.5631 24.2285C11.5631 24.232 11.5631 24.2355 11.5631 24.239C11.5631 24.2425 11.5631 24.246 11.5631 24.2495C11.5631 24.253 11.5631 24.2565 11.5631 24.26C11.5631 24.2635 11.5631 24.2669 11.5631 24.2704C11.5631 24.2739 11.5631 24.2774 11.5631 24.2809C11.5631 24.2843 11.5631 24.2878 11.5631 24.2913C11.5631 24.2948 11.5631 24.2982 11.5631 24.3017C11.5631 24.3052 11.5631 24.3086 11.5631 24.3121C11.5631 24.3155 11.5631 24.319 11.5631 24.3224C11.5631 24.3259 11.5631 24.3293 11.5631 24.3328C11.5631 24.3362 11.5631 24.3396 11.5631 24.3431C11.5631 24.3465 11.5631 24.3499 11.5631 24.3534C11.5631 24.3568 11.5631 24.3602 11.5631 24.3637C11.5631 24.3671 11.5631 24.3705 11.5631 24.3739C11.5631 24.3773 11.5631 24.3807 11.5631 24.3841C11.5631 24.3875 11.5631 24.3909 11.5631 24.3943C11.5631 24.3977 11.5631 24.4011 11.5631 24.4045C11.5631 24.4079 11.5631 24.4113 11.5631 24.4147H13.0631C13.0631 24.4113 13.0631 24.4079 13.0631 24.4045C13.0631 24.4011 13.0631 24.3977 13.0631 24.3943C13.0631 24.3909 13.0631 24.3875 13.0631 24.3841C13.0631 24.3807 13.0631 24.3773 13.0631 24.3739C13.0631 24.3705 13.0631 24.3671 13.0631 24.3637C13.0631 24.3602 13.0631 24.3568 13.0631 24.3534C13.0631 24.3499 13.0631 24.3465 13.0631 24.3431C13.0631 24.3396 13.0631 24.3362 13.0631 24.3328C13.0631 24.3293 13.0631 24.3259 13.0631 24.3224C13.0631 24.319 13.0631 24.3155 13.0631 24.3121C13.0631 24.3086 13.0631 24.3052 13.0631 24.3017C13.0631 24.2982 13.0631 24.2948 13.0631 24.2913C13.0631 24.2878 13.0631 24.2843 13.0631 24.2809C13.0631 24.2774 13.0631 24.2739 13.0631 24.2704C13.0631 24.2669 13.0631 24.2635 13.0631 24.26C13.0631 24.2565 13.0631 24.253 13.0631 24.2495C13.0631 24.246 13.0631 24.2425 13.0631 24.239C13.0631 24.2355 13.0631 24.232 13.0631 24.2285C13.0631 24.225 13.0631 24.2214 13.0631 24.2179C13.0631 24.2144 13.0631 24.2109 13.0631 24.2074C13.0631 24.2039 13.0631 24.2003 13.0631 24.1968C13.0631 24.1933 13.0631 24.1897 13.0631 24.1862C13.0631 24.1827 13.0631 24.1791 13.0631 24.1756C13.0631 24.1721 13.0631 24.1685 13.0631 24.165C13.0631 24.1614 13.0631 24.1579 13.0631 24.1543C13.0631 24.1508 13.0631 24.1472 13.0631 24.1436C13.0631 24.1401 13.0631 24.1365 13.0631 24.133C13.0631 24.1294 13.0631 24.1258 13.0631 24.1223C13.0631 24.1187 13.0631 24.1151 13.0631 24.1115C13.0631 24.108 13.0631 24.1044 13.0631 24.1008C13.0631 24.0972 13.0631 24.0936 13.0631 24.09C13.0631 24.0864 13.0631 24.0829 13.0631 24.0793C13.0631 24.0757 13.0631 24.0721 13.0631 24.0685C13.0631 24.0649 13.0631 24.0613 13.0631 24.0577C13.0631 24.0541 13.0631 24.0504 13.0631 24.0468C13.0631 24.0432 13.0631 24.0396 13.0631 24.036C13.0631 24.0324 13.0631 24.0288 13.0631 24.0251C13.0631 24.0215 13.0631 24.0179 13.0631 24.0143C13.0631 24.0106 13.0631 24.007 13.0631 24.0034C13.0631 23.9997 13.0631 23.9961 13.0631 23.9925C13.0631 23.9888 13.0631 23.9852 13.0631 23.9816C13.0631 23.9779 13.0631 23.9743 13.0631 23.9706C13.0631 23.967 13.0631 23.9633 13.0631 23.9597C13.0631 23.956 13.0631 23.9524 13.0631 23.9487C13.0631 23.945 13.0631 23.9414 13.0631 23.9377C13.0631 23.9341 13.0631 23.9304 13.0631 23.9267C13.0631 23.9231 13.0631 23.9194 13.0631 23.9157C13.0631 23.912 13.0631 23.9084 13.0631 23.9047C13.0631 23.901 13.0631 23.8973 13.0631 23.8936C13.0631 23.89 13.0631 23.8863 13.0631 23.8826C13.0631 23.8789 13.0631 23.8752 13.0631 23.8715C13.0631 23.8678 13.0631 23.8641 13.0631 23.8604C13.0631 23.8567 13.0631 23.853 13.0631 23.8493C13.0631 23.8456 13.0631 23.8419 13.0631 23.8382C13.0631 23.8345 13.0631 23.8308 13.0631 23.8271C13.0631 23.8234 13.0631 23.8197 13.0631 23.816C13.0631 23.8123 13.0631 23.8085 13.0631 23.8048C13.0631 23.8011 13.0631 23.7974 13.0631 23.7937C13.0631 23.7899 13.0631 23.7862 13.0631 23.7825C13.0631 23.7788 13.0631 23.775 13.0631 23.7713C13.0631 23.7676 13.0631 23.7638 13.0631 23.7601C13.0631 23.7564 13.0631 23.7526 13.0631 23.7489C13.0631 23.7452 13.0631 23.7414 13.0631 23.7377C13.0631 23.7339 13.0631 23.7302 13.0631 23.7264C13.0631 23.7227 13.0631 23.7189 13.0631 23.7152C13.0631 23.7114 13.0631 23.7077 13.0631 23.7039C13.0631 23.7002 13.0631 23.6964 13.0631 23.6927C13.0631 23.6889 13.0631 23.6851 13.0631 23.6814C13.0631 23.6776 13.0631 23.6738 13.0631 23.6701C13.0631 23.6663 13.0631 23.6625 13.0631 23.6588C13.0631 23.655 13.0631 23.6512 13.0631 23.6475C13.0631 23.6437 13.0631 23.6399 13.0631 23.6361C13.0631 23.6324 13.0631 23.6286 13.0631 23.6248C13.0631 23.621 13.0631 23.6172 13.0631 23.6135C13.0631 23.6097 13.0631 23.6059 13.0631 23.6021C13.0631 23.5983 13.0631 23.5945 13.0631 23.5907C13.0631 23.5869 13.0631 23.5832 13.0631 23.5794C13.0631 23.5756 13.0631 23.5718 13.0631 23.568C13.0631 23.5642 13.0631 23.5604 13.0631 23.5566C13.0631 23.5528 13.0631 23.549 13.0631 23.5452C13.0631 23.5414 13.0631 23.5376 13.0631 23.5338C13.0631 23.53 13.0631 23.5262 13.0631 23.5223C13.0631 23.5185 13.0631 23.5147 13.0631 23.5109C13.0631 23.5071 13.0631 23.5033 13.0631 23.4995C13.0631 23.4957 13.0631 23.4918 13.0631 23.488C13.0631 23.4842 13.0631 23.4804 13.0631 23.4766C13.0631 23.4728 13.0631 23.4689 13.0631 23.4651C13.0631 23.4613 13.0631 23.4575 13.0631 23.4536C13.0631 23.4498 13.0631 23.446 13.0631 23.4422C13.0631 23.4383 13.0631 23.4345 13.0631 23.4307C13.0631 23.4268 13.0631 23.423 13.0631 23.4192C13.0631 23.4153 13.0631 23.4115 13.0631 23.4077C13.0631 23.4038 13.0631 23.4 13.0631 23.3962C13.0631 23.3923 13.0631 23.3885 13.0631 23.3847C13.0631 23.3808 13.0631 23.377 13.0631 23.3731C13.0631 23.3693 13.0631 23.3654 13.0631 23.3616C13.0631 23.3578 13.0631 23.3539 13.0631 23.3501C13.0631 23.3462 13.0631 23.3424 13.0631 23.3385C13.0631 23.3347 13.0631 23.3308 13.0631 23.327C13.0631 23.3231 13.0631 23.3193 13.0631 23.3154C13.0631 23.3116 13.0631 23.3077 13.0631 23.3039C13.0631 23.3 13.0631 23.2962 13.0631 23.2923C13.0631 23.2884 13.0631 23.2846 13.0631 23.2807C13.0631 23.2769 13.0631 23.273 13.0631 23.2692C13.0631 23.2653 13.0631 23.2614 13.0631 23.2576C13.0631 23.2537 13.0631 23.2498 13.0631 23.246C13.0631 23.2421 13.0631 23.2383 13.0631 23.2344C13.0631 23.2305 13.0631 23.2267 13.0631 23.2228C13.0631 23.2189 13.0631 23.2151 13.0631 23.2112C13.0631 23.2073 13.0631 23.2035 13.0631 23.1996C13.0631 23.1957 13.0631 23.1919 13.0631 23.188C13.0631 23.1841 13.0631 23.1802 13.0631 23.1764C13.0631 23.1725 13.0631 23.1686 13.0631 23.1648C13.0631 23.1609 13.0631 23.157 13.0631 23.1531C13.0631 23.1493 13.0631 23.1454 13.0631 23.1415C13.0631 23.1376 13.0631 23.1338 13.0631 23.1299C13.0631 23.126 13.0631 23.1221 13.0631 23.1183C13.0631 23.1144 13.0631 23.1105 13.0631 23.1066C13.0631 23.1027 13.0631 23.0989 13.0631 23.095C13.0631 23.0911 13.0631 23.0872 13.0631 23.0833C13.0631 23.0795 13.0631 23.0756 13.0631 23.0717C13.0631 23.0678 13.0631 23.0639 13.0631 23.0601C13.0631 23.0562 13.0631 23.0523 13.0631 23.0484C13.0631 23.0445 13.0631 23.0406 13.0631 23.0368C13.0631 23.0329 13.0631 23.029 13.0631 23.0251C13.0631 23.0212 13.0631 23.0173 13.0631 23.0135C13.0631 23.0096 13.0631 23.0057 13.0631 23.0018C13.0631 22.9979 13.0631 22.994 13.0631 22.9902C13.0631 22.9863 13.0631 22.9824 13.0631 22.9785C13.0631 22.9746 13.0631 22.9707 13.0631 22.9668C13.0631 22.963 13.0631 22.9591 13.0631 22.9552C13.0631 22.9513 13.0631 22.9474 13.0631 22.9435C13.0631 22.9396 13.0631 22.9358 13.0631 22.9319C13.0631 22.928 13.0631 22.9241 13.0631 22.9202C13.0631 22.9163 13.0631 22.9124 13.0631 22.9086C13.0631 22.9047 13.0631 22.9008 13.0631 22.8969C13.0631 22.893 13.0631 22.8891 13.0631 22.8852C13.0631 22.8813 13.0631 22.8775 13.0631 22.8736C13.0631 22.8697 13.0631 22.8658 13.0631 22.8619C13.0631 22.858 13.0631 22.8541 13.0631 22.8503C13.0631 22.8464 13.0631 22.8425 13.0631 22.8386C13.0631 22.8347 13.0631 22.8308 13.0631 22.8269C13.0631 22.8231 13.0631 22.8192 13.0631 22.8153C13.0631 22.8114 13.0631 22.8075 13.0631 22.8036C13.0631 22.7997 13.0631 22.7959 13.0631 22.792C13.0631 22.7881 13.0631 22.7842 13.0631 22.7803C13.0631 22.7764 13.0631 22.7726 13.0631 22.7687C13.0631 22.7648 13.0631 22.7609 13.0631 22.757C13.0631 22.7532 13.0631 22.7493 13.0631 22.7454C13.0631 22.7415 13.0631 22.7376 13.0631 22.7337C13.0631 22.7299 13.0631 22.726 13.0631 22.7221C13.0631 22.7182 13.0631 22.7143 13.0631 22.7105C13.0631 22.7066 13.0631 22.7027 13.0631 22.6988C13.0631 22.695 13.0631 22.6911 13.0631 22.6872C13.0631 22.6833 13.0631 22.6794 13.0631 22.6756C13.0631 22.6717 13.0631 22.6678 13.0631 22.6639C13.0631 22.6601 13.0631 22.6562 13.0631 22.6523C13.0631 22.6484 13.0631 22.6446 13.0631 22.6407C13.0631 22.6368 13.0631 22.633 13.0631 22.6291C13.0631 22.6252 13.0631 22.6213 13.0631 22.6175C13.0631 22.6136 13.0631 22.6097 13.0631 22.6059C13.0631 22.602 13.0631 22.5981 13.0631 22.5943C13.0631 22.5904 13.0631 22.5865 13.0631 22.5827C13.0631 22.5788 13.0631 22.5749 13.0631 22.5711C13.0631 22.5672 13.0631 22.5633 13.0631 22.5595C13.0631 22.5556 13.0631 22.5518 13.0631 22.5479C13.0631 22.544 13.0631 22.5402 13.0631 22.5363C13.0631 22.5325 13.0631 22.5286 13.0631 22.5247C13.0631 22.5209 13.0631 22.517 13.0631 22.5132C13.0631 22.5093 13.0631 22.5055 13.0631 22.5016C13.0631 22.4978 13.0631 22.4939 13.0631 22.4901C13.0631 22.4862 13.0631 22.4824 13.0631 22.4785C13.0631 22.4747 13.0631 22.4708 13.0631 22.467C13.0631 22.4631 13.0631 22.4593 13.0631 22.4554C13.0631 22.4516 13.0631 22.4477 13.0631 22.4439C13.0631 22.44 13.0631 22.4362 13.0631 22.4324C13.0631 22.4285 13.0631 22.4247 13.0631 22.4208C13.0631 22.417 13.0631 22.4132 13.0631 22.4093C13.0631 22.4055 13.0631 22.4017 13.0631 22.3978C13.0631 22.394 13.0631 22.3902 13.0631 22.3863C13.0631 22.3825 13.0631 22.3787 13.0631 22.3748C13.0631 22.371 13.0631 22.3672 13.0631 22.3633C13.0631 22.3595 13.0631 22.3557 13.0631 22.3519C13.0631 22.348 13.0631 22.3442 13.0631 22.3404C13.0631 22.3366 13.0631 22.3328 13.0631 22.3289C13.0631 22.3251 13.0631 22.3213 13.0631 22.3175C13.0631 22.3137 13.0631 22.3099 13.0631 22.306C13.0631 22.3022 13.0631 22.2984 13.0631 22.2946C13.0631 22.2908 13.0631 22.287 13.0631 22.2832C13.0631 22.2794 13.0631 22.2756 13.0631 22.2718C13.0631 22.268 13.0631 22.2642 13.0631 22.2604C13.0631 22.2565 13.0631 22.2528 13.0631 22.249C13.0631 22.2452 13.0631 22.2414 13.0631 22.2376C13.0631 22.2338 13.0631 22.23 13.0631 22.2262C13.0631 22.2224 13.0631 22.2186 13.0631 22.2148C13.0631 22.211 13.0631 22.2072 13.0631 22.2034C13.0631 22.1997 13.0631 22.1959 13.0631 22.1921C13.0631 22.1883 13.0631 22.1845 13.0631 22.1808C13.0631 22.177 13.0631 22.1732 13.0631 22.1694C13.0631 22.1656 13.0631 22.1619 13.0631 22.1581C13.0631 22.1543 13.0631 22.1506 13.0631 22.1468C13.0631 22.143 13.0631 22.1393 13.0631 22.1355C13.0631 22.1317 13.0631 22.128 13.0631 22.1242C13.0631 22.1204 13.0631 22.1167 13.0631 22.1129C13.0631 22.1092 13.0631 22.1054 13.0631 22.1017C13.0631 22.0979 13.0631 22.0942 13.0631 22.0904C13.0631 22.0867 13.0631 22.0829 13.0631 22.0792C13.0631 22.0754 13.0631 22.0717 13.0631 22.0679C13.0631 22.0642 13.0631 22.0604 13.0631 22.0567C13.0631 22.053 13.0631 22.0492 13.0631 22.0455C13.0631 22.0418 13.0631 22.038 13.0631 22.0343C13.0631 22.0306 13.0631 22.0268 13.0631 22.0231C13.0631 22.0194 13.0631 22.0157 13.0631 22.012C13.0631 22.0082 13.0631 22.0045 13.0631 22.0008C13.0631 21.9971 13.0631 21.9934 13.0631 21.9897C13.0631 21.9859 13.0631 21.9822 13.0631 21.9785C13.0631 21.9748 13.0631 21.9711 13.0631 21.9674C13.0631 21.9637 13.0631 21.96 13.0631 21.9563C13.0631 21.9526 13.0631 21.9489 13.0631 21.9452C13.0631 21.9415 13.0631 21.9378 13.0631 21.9341C13.0631 21.9304 13.0631 21.9268 13.0631 21.9231C13.0631 21.9194 13.0631 21.9157 13.0631 21.912C13.0631 21.9083 13.0631 21.9047 13.0631 21.901C13.0631 21.8973 13.0631 21.8936 13.0631 21.89C13.0631 21.8863 13.0631 21.8826 13.0631 21.879C13.0631 21.8753 13.0631 21.8716 13.0631 21.868C13.0631 21.8643 13.0631 21.8606 13.0631 21.857C13.0631 21.8533 13.0631 21.8497 13.0631 21.846C13.0631 21.8424 13.0631 21.8387 13.0631 21.8351C13.0631 21.8314 13.0631 21.8278 13.0631 21.8242C13.0631 21.8205 13.0631 21.8169 13.0631 21.8132C13.0631 21.8096 13.0631 21.806 13.0631 21.8023C13.0631 21.7987 13.0631 21.7951 13.0631 21.7915C13.0631 21.7878 13.0631 21.7842 13.0631 21.7806C13.0631 21.777 13.0631 21.7734 13.0631 21.7697C13.0631 21.7661 13.0631 21.7625 13.0631 21.7589C13.0631 21.7553 13.0631 21.7517 13.0631 21.7481C13.0631 21.7445 13.0631 21.7409 13.0631 21.7373C13.0631 21.7337 13.0631 21.7301 13.0631 21.7265C13.0631 21.7229 13.0631 21.7193 13.0631 21.7157C13.0631 21.7121 13.0631 21.7086 13.0631 21.705C13.0631 21.7014 13.0631 21.6978 13.0631 21.6942C13.0631 21.6907 13.0631 21.6871 13.0631 21.6835C13.0631 21.68 13.0631 21.6764 13.0631 21.6728C13.0631 21.6693 13.0631 21.6657 13.0631 21.6622C13.0631 21.6586 13.0631 21.655 13.0631 21.6515C13.0631 21.6479 13.0631 21.6444 13.0631 21.6408C13.0631 21.6373 13.0631 21.6338 13.0631 21.6302C13.0631 21.6267 13.0631 21.6231 13.0631 21.6196C13.0631 21.6161 13.0631 21.6126 13.0631 21.609C13.0631 21.6055 13.0631 21.602 13.0631 21.5985C13.0631 21.5949 13.0631 21.5914 13.0631 21.5879C13.0631 21.5844 13.0631 21.5809 13.0631 21.5774C13.0631 21.5739 13.0631 21.5704 13.0631 21.5669C13.0631 21.5634 13.0631 21.5599 13.0631 21.5564C13.0631 21.5529 13.0631 21.5494 13.0631 21.5459C13.0631 21.5424 13.0631 21.5389 13.0631 21.5354C13.0631 21.532 13.0631 21.5285 13.0631 21.525C13.0631 21.5215 13.0631 21.5181 13.0631 21.5146C13.0631 21.5111 13.0631 21.5077 13.0631 21.5042C13.0631 21.5008 13.0631 21.4973 13.0631 21.4938C13.0631 21.4904 13.0631 21.4869 13.0631 21.4835C13.0631 21.48 13.0631 21.4766 13.0631 21.4732C13.0631 21.4697 13.0631 21.4663 13.0631 21.4628C13.0631 21.4594 13.0631 21.456 13.0631 21.4526C13.0631 21.4491 13.0631 21.4457 13.0631 21.4423C13.0631 21.4389 13.0631 21.4355 13.0631 21.432C13.0631 21.4286 13.0631 21.4252 13.0631 21.4218C13.0631 21.4184 13.0631 21.415 13.0631 21.4116C13.0631 21.4082 13.0631 21.4048 13.0631 21.4014C13.0631 21.3981 13.0631 21.3947 13.0631 21.3913C13.0631 21.3879 13.0631 21.3845 13.0631 21.3812C13.0631 21.3778 13.0631 21.3744 13.0631 21.371C13.0631 21.3677 13.0631 21.3643 13.0631 21.3609C13.0631 21.3576 13.0631 21.3542 13.0631 21.3509C13.0631 21.3475 13.0631 21.3442 13.0631 21.3408C13.0631 21.3375 13.0631 21.3341 13.0631 21.3308C13.0631 21.3275 13.0631 21.3241 13.0631 21.3208C13.0631 21.3175 13.0631 21.3142 13.0631 21.3108C13.0631 21.3075 13.0631 21.3042 13.0631 21.3009C13.0631 21.2976 13.0631 21.2943 13.0631 21.291C13.0631 21.2877 13.0631 21.2844 13.0631 21.2811C13.0631 21.2778 13.0631 21.2745 13.0631 21.2712C13.0631 21.2679 13.0631 21.2646 13.0631 21.2613C13.0631 21.258 13.0631 21.2548 13.0631 21.2515C13.0631 21.2482 13.0631 21.245 13.0631 21.2417C13.0631 21.2384 13.0631 21.2352 13.0631 21.2319C13.0631 21.2286 13.0631 21.2254 13.0631 21.2221C13.0631 21.2189 13.0631 21.2157 13.0631 21.2124C13.0631 21.2092 13.0631 21.2059 13.0631 21.2027C13.0631 21.1995 13.0631 21.1963 13.0631 21.193C13.0631 21.1898 13.0631 21.1866 13.0631 21.1834C13.0631 21.1802 13.0631 21.177 13.0631 21.1737C13.0631 21.1705 13.0631 21.1673 13.0631 21.1641C13.0631 21.1609 13.0631 21.1578 13.0631 21.1546C13.0631 21.1514 13.0631 21.1482 13.0631 21.145C13.0631 21.1418 13.0631 21.1387 13.0631 21.1355C13.0631 21.1323 13.0631 21.1292 13.0631 21.126C13.0631 21.1228 13.0631 21.1197 13.0631 21.1165C13.0631 21.1134 13.0631 21.1102 13.0631 21.1071C13.0631 21.1039 13.0631 21.1008 13.0631 21.0977C13.0631 21.0945 13.0631 21.0914 13.0631 21.0883C13.0631 21.0851 13.0631 21.082 13.0631 21.0789C13.0631 21.0758 13.0631 21.0727 13.0631 21.0696C13.0631 21.0665 13.0631 21.0634 13.0631 21.0603C13.0631 21.0572 13.0631 21.0541 13.0631 21.051C13.0631 21.0479 13.0631 21.0448 13.0631 21.0417C13.0631 21.0387 13.0631 21.0356 13.0631 21.0325C13.0631 21.0294 13.0631 21.0264 13.0631 21.0233C13.0631 21.0203 13.0631 21.0172 13.0631 21.0141C13.0631 21.0111 13.0631 21.0081 13.0631 21.005C13.0631 21.002 13.0631 20.9989 13.0631 20.9959C13.0631 20.9929 13.0631 20.9898 13.0631 20.9868C13.0631 20.9838 13.0631 20.9808 13.0631 20.9778C13.0631 20.9748 13.0631 20.9718 13.0631 20.9688C13.0631 20.9657 13.0631 20.9628 13.0631 20.9598C13.0631 20.9568 13.0631 20.9538 13.0631 20.9508C13.0631 20.9478 13.0631 20.9448 13.0631 20.9419C13.0631 20.9389 13.0631 20.9359 13.0631 20.933C13.0631 20.93 13.0631 20.927 13.0631 20.9241C13.0631 20.9211 13.0631 20.9182 13.0631 20.9152C13.0631 20.9123 13.0631 20.9094 13.0631 20.9064C13.0631 20.9035 13.0631 20.9006 13.0631 20.8977C13.0631 20.8947 13.0631 20.8918 13.0631 20.8889C13.0631 20.886 13.0631 20.8831 13.0631 20.8802C13.0631 20.8773 13.0631 20.8744 13.0631 20.8715C13.0631 20.8686 13.0631 20.8657 13.0631 20.8628C13.0631 20.86 13.0631 20.8571 13.0631 20.8542C13.0631 20.8514 13.0631 20.8485 13.0631 20.8456C13.0631 20.8428 13.0631 20.8399 13.0631 20.8371C13.0631 20.8342 13.0631 20.8314 13.0631 20.8285C13.0631 20.8257 13.0631 20.8229 13.0631 20.82C13.0631 20.8172 13.0631 20.8144 13.0631 20.8116C13.0631 20.8088 13.0631 20.806 13.0631 20.8031C13.0631 20.8003 13.0631 20.7975 13.0631 20.7947C13.0631 20.792 13.0631 20.7892 13.0631 20.7864C13.0631 20.7836 13.0631 20.7808 13.0631 20.778C13.0631 20.7753 13.0631 20.7725 13.0631 20.7697C13.0631 20.767 13.0631 20.7642 13.0631 20.7615C13.0631 20.7587 13.0631 20.756 13.0631 20.7532C13.0631 20.7505 13.0631 20.7478 13.0631 20.745C13.0631 20.7423 13.0631 20.7396 13.0631 20.7369C13.0631 20.7342 13.0631 20.7315 13.0631 20.7287C13.0631 20.726 13.0631 20.7233 13.0631 20.7206C13.0631 20.718 13.0631 20.7153 13.0631 20.7126C13.0631 20.7099 13.0631 20.7072 13.0631 20.7046C13.0631 20.7019 13.0631 20.6992 13.0631 20.6966C13.0631 20.6939 13.0631 20.6912 13.0631 20.6886C13.0631 20.686 13.0631 20.6833 13.0631 20.6807C13.0631 20.678 13.0631 20.6754 13.0631 20.6728C13.0631 20.6702 13.0631 20.6675 13.0631 20.6649C13.0631 20.6623 13.0631 20.6597 13.0631 20.6571C13.0631 20.6545 13.0631 20.6519 13.0631 20.6493C13.0631 20.6467 13.0631 20.6442 13.0631 20.6416C13.0631 20.639 13.0631 20.6364 13.0631 20.6339C13.0631 20.6313 13.0631 20.6287 13.0631 20.6262C13.0631 20.6236 13.0631 20.6211 13.0631 20.6186C13.0631 20.616 13.0631 20.6135 13.0631 20.6109C13.0631 20.6084 13.0631 20.6059 13.0631 20.6034C13.0631 20.6009 13.0631 20.5984 13.0631 20.5959C13.0631 20.5934 13.0631 20.5909 13.0631 20.5884C13.0631 20.5859 13.0631 20.5834 13.0631 20.5809C13.0631 20.5784 13.0631 20.576 13.0631 20.5735C13.0631 20.571 13.0631 20.5686 13.0631 20.5661C13.0631 20.5637 13.0631 20.5612 13.0631 20.5588C13.0631 20.5563 13.0631 20.5539 13.0631 20.5515C13.0631 20.549 13.0631 20.5466 13.0631 20.5442C13.0631 20.5418 13.0631 20.5394 13.0631 20.537C13.0631 20.5346 13.0631 20.5322 13.0631 20.5298C13.0631 20.5274 13.0631 20.525 13.0631 20.5226C13.0631 20.5202 13.0631 20.5179 13.0631 20.5155C13.0631 20.5131 13.0631 20.5108 13.0631 20.5084C13.0631 20.5061 13.0631 20.5037 13.0631 20.5014C13.0631 20.499 13.0631 20.4967 13.0631 20.4944C13.0631 20.4921 13.0631 20.4897 13.0631 20.4874C13.0631 20.4851 13.0631 20.4828 13.0631 20.4805C13.0631 20.4782 13.0631 20.4759 13.0631 20.4736C13.0631 20.4713 13.0631 20.4691 13.0631 20.4668C13.0631 20.4645 13.0631 20.4623 13.0631 20.46C13.0631 20.4577 13.0631 20.4555 13.0631 20.4532C13.0631 20.451 13.0631 20.4487 13.0631 20.4465C13.0631 20.4443 13.0631 20.4421 13.0631 20.4398C13.0631 20.4376 13.0631 20.4354 13.0631 20.4332C13.0631 20.431 13.0631 20.4288 13.0631 20.4266C13.0631 20.4244 13.0631 20.4222 13.0631 20.42C13.0631 20.4179 13.0631 20.4157 13.0631 20.4135C13.0631 20.4114 13.0631 20.4092 13.0631 20.407C13.0631 20.4049 13.0631 20.4028 13.0631 20.4006C13.0631 20.3985 13.0631 20.3963 13.0631 20.3942C13.0631 20.3921 13.0631 20.39 13.0631 20.3879C13.0631 20.3858 13.0631 20.3837 13.0631 20.3816C13.0631 20.3795 13.0631 20.3774 13.0631 20.3753C13.0631 20.3732 13.0631 20.3711 13.0631 20.3691C13.0631 20.367 13.0631 20.3649 13.0631 20.3629C13.0631 20.3608 13.0631 20.3588 13.0631 20.3568C13.0631 20.3547 13.0631 20.3527 13.0631 20.3507C13.0631 20.3486 13.0631 20.3466 13.0631 20.3446C13.0631 20.3426 13.0631 20.3406 13.0631 20.3386C13.0631 20.3366 13.0631 20.3346 13.0631 20.3326C13.0631 20.3306 13.0631 20.3287 13.0631 20.3267C13.0631 20.3247 13.0631 20.3228 13.0631 20.3208C13.0631 20.3189 13.0631 20.3169 13.0631 20.315C13.0631 20.313 13.0631 20.3111 13.0631 20.3092C13.0631 20.3073 13.0631 20.3053 13.0631 20.3034C13.0631 20.3015 13.0631 20.2996 13.0631 20.2977C13.0631 20.2958 13.0631 20.294 13.0631 20.2921C13.0631 20.2902 13.0631 20.2883 13.0631 20.2865C13.0631 20.2846 13.0631 20.2827 13.0631 20.2809C13.0631 20.279 13.0631 20.2772 13.0631 20.2754C13.0631 20.2735 13.0631 20.2717 13.0631 20.2699C13.0631 20.2681 13.0631 20.2662 13.0631 20.2644C13.0631 20.2626 13.0631 20.2608 13.0631 20.259C13.0631 20.2573 13.0631 20.2555 13.0631 20.2537C13.0631 20.2519 13.0631 20.2502 13.0631 20.2484C13.0631 20.2466 13.0631 20.2449 13.0631 20.2431C13.0631 20.2414 13.0631 20.2397 13.0631 20.2379C13.0631 20.2362 13.0631 20.2345 13.0631 20.2328C13.0631 20.2311 13.0631 20.2294 13.0631 20.2277C13.0631 20.226 13.0631 20.2243 13.0631 20.2226C13.0631 20.2209 13.0631 20.2192 13.0631 20.2176C13.0631 20.2159 13.0631 20.2142 13.0631 20.2126C13.0631 20.2109 13.0631 20.2093 13.0631 20.2077C13.0631 20.206 13.0631 20.2044 13.0631 20.2028C13.0631 20.2012 13.0631 20.1995 13.0631 20.1979C13.0631 20.1963 13.0631 20.1947 13.0631 20.1932C13.0631 20.1916 13.0631 20.19 13.0631 20.1884C13.0631 20.1868 13.0631 20.1853 13.0631 20.1837C13.0631 20.1822 13.0631 20.1806 13.0631 20.1791C13.0631 20.1775 13.0631 20.176 13.0631 20.1745C13.0631 20.173 13.0631 20.1714 13.0631 20.1699C13.0631 20.1684 13.0631 20.1669 13.0631 20.1654C13.0631 20.1639 13.0631 20.1625 13.0631 20.161C13.0631 20.1595 13.0631 20.158 13.0631 20.1566C13.0631 20.1551 13.0631 20.1537 13.0631 20.1522C13.0631 20.1508 13.0631 20.1493 13.0631 20.1479C13.0631 20.1465 13.0631 20.1451 13.0631 20.1437C13.0631 20.1423 13.0631 20.1409 13.0631 20.1395C13.0631 20.1381 13.0631 20.1367 13.0631 20.1353C13.0631 20.1339 13.0631 20.1326 13.0631 20.1312C13.0631 20.1298 13.0631 20.1285 13.0631 20.1271C13.0631 20.1258 13.0631 20.1245 13.0631 20.1231C13.0631 20.1218 13.0631 20.1205 13.0631 20.1192C13.0631 20.1179 13.0631 20.1166 13.0631 20.1153C13.0631 20.114 13.0631 20.1127 13.0631 20.1114C13.0631 20.1101 13.0631 20.1089 13.0631 20.1076C13.0631 20.1064 13.0631 20.1051 13.0631 20.1039C13.0631 20.1026 13.0631 20.1014 13.0631 20.1002C13.0631 20.0989 13.0631 20.0977 13.0631 20.0965C13.0631 20.0953 13.0631 20.0941 13.0631 20.0929C13.0631 20.0917 13.0631 20.0905 13.0631 20.0894C13.0631 20.0882 13.0631 20.087 13.0631 20.0859C13.0631 20.0847 13.0631 20.0836 13.0631 20.0824C13.0631 20.0813 13.0631 20.0801 13.0631 20.079C13.0631 20.0779 13.0631 20.0768 13.0631 20.0757C13.0631 20.0746 13.0631 20.0735 13.0631 20.0724C13.0631 20.0713 13.0631 20.0702 13.0631 20.0692C13.0631 20.0681 13.0631 20.067 13.0631 20.066C13.0631 20.0649 13.0631 20.0639 13.0631 20.0629C13.0631 20.0618 13.0631 20.0608 13.0631 20.0598C13.0631 20.0588 13.0631 20.0577 13.0631 20.0568C13.0631 20.0558 13.0631 20.0548 13.0631 20.0538C13.0631 20.0528 13.0631 20.0518 13.0631 20.0509C13.0631 20.0499 13.0631 20.0489 13.0631 20.048C13.0631 20.0471 13.0631 20.0461 13.0631 20.0452C13.0631 20.0443 13.0631 20.0433 13.0631 20.0424C13.0631 20.0415 13.0631 20.0406 13.0631 20.0397C13.0631 20.0388 13.0631 20.038 13.0631 20.0371C13.0631 20.0362 13.0631 20.0354 13.0631 20.0345C13.0631 20.0336 13.0631 20.0328 13.0631 20.032C13.0631 20.0311 13.0631 20.0303 13.0631 20.0295C13.0631 20.0287 13.0631 20.0278 13.0631 20.0271C13.0631 20.0262 13.0631 20.0255 13.0631 20.0247C13.0631 20.0239 13.0631 20.0231 13.0631 20.0224C13.0631 20.0216 13.0631 20.0208 13.0631 20.0201C13.0631 20.0194 13.0631 20.0186 13.0631 20.0179C13.0631 20.0172 13.0631 20.0164 13.0631 20.0157C13.0631 20.015 13.0631 20.0143 13.0631 20.0136C13.0631 20.013 13.0631 20.0123 13.0631 20.0116C13.0631 20.0109 13.0631 20.0103 13.0631 20.0096C13.0631 20.009 13.0631 20.0083 13.0631 20.0077C13.0631 20.0071 13.0631 20.0064 13.0631 20.0058C13.0631 20.0052 13.0631 20.0046 13.0631 20.004C13.0631 20.0034 13.0631 20.0028 13.0631 20.0023C13.0631 20.0017 13.0631 20.0011 13.0631 20.0006C13.0631 20 13.0631 19.9995 13.0631 19.9989C13.0631 19.9984 13.0631 19.9979 13.0631 19.9973C13.0631 19.9968 13.0631 19.9963 13.0631 19.9958C13.0631 19.9953 13.0631 19.9948 13.0631 19.9944C13.0631 19.9939 13.0631 19.9934 13.0631 19.9929C13.0631 19.9925 13.0631 19.992 13.0631 19.9916C13.0631 19.9912 13.0631 19.9907 13.0631 19.9903C13.0631 19.9899 13.0631 19.9895 13.0631 19.9891C13.0631 19.9887 13.0631 19.9883 13.0631 19.9879C13.0631 19.9875 13.0631 19.9871 13.0631 19.9868C13.0631 19.9864 13.0631 19.9861 13.0631 19.9857C13.0631 19.9854 13.0631 19.985 13.0631 19.9847C13.0631 19.9844 13.0631 19.9841 13.0631 19.9838C13.0631 19.9835 13.0631 19.9832 13.0631 19.9829C13.0631 19.9826 13.0631 19.9823 13.0631 19.9821C13.0631 19.9818 13.0631 19.9816 13.0631 19.9813C13.0631 19.9811 13.0631 19.9808 13.0631 19.9806C13.0631 19.9804 13.0631 19.9802 13.0631 19.98C13.0631 19.9798 13.0631 19.9796 13.0631 19.9794C13.0631 19.9792 13.0631 19.979 13.0631 19.9789C13.0631 19.9787 13.0631 19.9786 13.0631 19.9784C13.0631 19.9783 13.0631 19.9781 13.0631 19.978C13.0631 19.9779 13.0631 19.9778 13.0631 19.9777C13.0631 19.9776 13.0631 19.9775 13.0631 19.9774C13.0631 19.9773 13.0631 19.9772 13.0631 19.9772C13.0631 19.9771 13.0631 19.9771 13.0631 19.977C13.0631 19.977 13.0631 19.977 13.0631 19.9769C13.0631 19.9769 13.0631 19.9769 12.3131 19.9769ZM1 25.1647C2.13997 25.1647 2.84689 25.4924 3.60898 25.8714C4.38975 26.2597 5.28072 26.7363 6.61737 26.7407L6.62239 25.2407C5.67781 25.2376 5.07681 24.9261 4.27693 24.5283C3.45836 24.1212 2.49596 23.6647 1 23.6647V25.1647ZM6.61737 26.7407C7.95361 26.7452 8.96569 26.2816 9.82551 25.8874C10.7029 25.4852 11.4072 25.1647 12.3131 25.1647V23.6647C11.0342 23.6647 10.0462 24.1361 9.20043 24.5238C8.33705 24.9196 7.59495 25.244 6.62239 25.2407L6.61737 26.7407ZM12.3131 25.1647C13.1301 25.1647 13.6597 25.4506 14.3031 25.8277C14.9475 26.2055 15.7431 26.7044 16.914 26.7404L16.9601 25.2411C16.2219 25.2184 15.7365 24.9293 15.0617 24.5337C14.3859 24.1375 13.5581 23.6647 12.3131 23.6647V25.1647ZM22.3163 24.9567C23.332 24.9988 23.8738 25.4856 24.9017 26.0599L25.6333 24.7504C24.8659 24.3216 23.8608 23.5194 22.3783 23.458L22.3163 24.9567ZM24.9017 26.0599C25.4769 26.3812 26.1545 26.68 27.0364 26.7391L27.1366 25.2424C26.5618 25.2039 26.1064 25.0147 25.6333 24.7504L24.9017 26.0599ZM26.0175 25.4051V17.0787H24.5175V25.4051H26.0175ZM24.9692 16.3906L18.2846 19.2888L18.8812 20.665L25.5658 17.7668L24.9692 16.3906ZM24.9691 17.7668L31.6514 20.665L32.2482 19.2888L25.5659 16.3906L24.9691 17.7668ZM16.914 26.7404C17.7902 26.7673 18.4991 26.5343 19.1107 26.2381C19.4103 26.0931 19.6916 25.9302 19.9484 25.7801C20.2125 25.6257 20.4481 25.4864 20.6911 25.3622L20.0083 24.0265C19.7192 24.1744 19.442 24.3386 19.1913 24.4852C18.9332 24.636 18.6977 24.7715 18.457 24.8881C17.9881 25.1152 17.5228 25.2584 16.9601 25.2411L16.914 26.7404ZM20.6911 25.3622C21.2066 25.0986 21.7036 24.9313 22.3163 24.9567L22.3783 23.458C21.4172 23.4182 20.6572 23.6949 20.0083 24.0265L20.6911 25.3622ZM21.0521 24.4313L18.2992 17.0811L16.8945 17.6072L19.6473 24.9574L21.0521 24.4313ZM27.0364 26.7391C28.6192 26.845 29.6277 26.1621 30.4983 25.6802L29.7719 24.3678C28.7991 24.9063 28.196 25.3134 27.1366 25.2424L27.0364 26.7391ZM30.4983 25.6802C31.2109 25.2857 31.9164 24.9573 33 24.9573V23.4573C31.5467 23.4573 30.5772 23.922 29.7719 24.3678L30.4983 25.6802ZM30.8409 25.2777L33.5328 17.7911L32.1212 17.2835L29.4294 24.7702L30.8409 25.2777ZM26.0175 13.8927V10.8758H24.5175V13.8927H26.0175ZM24.9597 13.2087L19.681 15.584L20.2965 16.9519L25.5752 14.5766L24.9597 13.2087ZM19.681 15.584L17.2891 16.6602L17.9046 18.0281L20.2965 16.9519L19.681 15.584ZM19.2388 10.8758V16.2679H20.7388V10.8758H19.2388ZM33.1527 16.8617L30.834 15.7438L30.1826 17.095L32.5013 18.2129L33.1527 16.8617ZM30.834 15.7438L25.5932 13.2171L24.9418 14.5682L30.1826 17.095L30.834 15.7438ZM29.7583 10.8758V16.4194H31.2583V10.8758H29.7583ZM25.2675 10.1258H22.6281V11.6258H25.2675V10.1258ZM22.6281 10.1258H19.9888V11.6258H22.6281V10.1258ZM23.3781 10.8758V7.90697H21.8781V10.8758H23.3781ZM25.2675 11.6258H27.8879V10.1258H25.2675V11.6258ZM27.8879 11.6258H30.5083V10.1258H27.8879V11.6258ZM28.6379 10.8758V7.90697H27.1379V10.8758H28.6379ZM27.8879 7.15697H25.258V8.65697H27.8879V7.15697ZM25.258 7.15697H22.6281V8.65697H25.258V7.15697ZM26.008 7.90697V6.00024H24.508V7.90697H26.008Z" fill="#AA8B62"/>
</svg>
