<svg width="32" height="32" viewBox="0 0 32 32" fill="none" xmlns="http://www.w3.org/2000/svg">
<path d="M15.8817 7.99993L15.8814 8.74993L15.882 8.74993L15.8817 7.99993ZM13.0518 8.57407L12.4902 8.077V8.077L13.0518 8.57407ZM11.972 11.6765V12.4265H11.972L11.972 11.6765ZM7.26628 11.6765V10.9265C6.85207 10.9265 6.51628 11.2623 6.51628 11.6765H7.26628ZM7.26628 13.8893H6.51628C6.51628 14.3035 6.85207 14.6393 7.26628 14.6393V13.8893ZM11.5222 23.9998H10.7722C10.7722 24.414 11.108 24.7498 11.5222 24.7498V23.9998ZM15.8817 23.9998V24.7498H15.8817L15.8817 23.9998ZM18.7115 8.57376L19.2732 8.07668V8.07668L18.7115 8.57376ZM24.4971 11.6762H25.2471C25.2471 11.262 24.9113 10.9262 24.4971 10.9262V11.6762ZM24.4971 13.8889V14.6389C24.9113 14.6389 25.2471 14.3032 25.2471 13.8889H24.4971ZM20.2412 13.8889V13.1389H20.2412L20.2412 13.8889ZM20.2412 23.9994L20.2412 24.7494C20.6554 24.7494 20.9912 24.4136 20.9912 23.9994H20.2412ZM2.72739 23.2498C2.31317 23.2498 1.97739 23.5855 1.97739 23.9998C1.97739 24.414 2.31317 24.7498 2.72739 24.7498V23.2498ZM7.57789 24.7498C7.99211 24.7498 8.32789 24.414 8.32789 23.9998C8.32789 23.5855 7.99211 23.2498 7.57789 23.2498V24.7498ZM6.18118 18.5657V17.8157H5.43118V18.5657H6.18118ZM3.88163 18.5657H4.63163V17.8346L3.90079 17.8159L3.88163 18.5657ZM9.21331 18.5657V19.3157C9.41926 19.3157 9.61616 19.231 9.7578 19.0814C9.89944 18.9319 9.97335 18.7307 9.96221 18.5251L9.21331 18.5657ZM8.54832 16.689L7.93525 17.121C7.96114 17.1578 7.99028 17.1921 8.02233 17.2236L8.54832 16.689ZM3.88163 15.3977L3.29655 15.8669L3.88163 15.3977ZM2.84344 8.97584L2.20977 9.37705L2.84344 8.97584ZM1 7.99993L1.12741 7.26083C0.909428 7.22326 0.68598 7.28382 0.51681 7.42632C0.347639 7.56883 0.25 7.77874 0.25 7.99993H1ZM1.84512 17.9019L2.32705 17.3272L1.84512 17.9019ZM29.2726 24.7498C29.6868 24.7498 30.0226 24.414 30.0226 23.9998C30.0226 23.5855 29.6868 23.2498 29.2726 23.2498V24.7498ZM24.4221 23.2498C24.0079 23.2498 23.6721 23.5855 23.6721 23.9998C23.6721 24.414 24.0079 24.7498 24.4221 24.7498V23.2498ZM25.8188 18.5657H26.5688V17.8157H25.8188V18.5657ZM28.1184 18.5657L28.0992 17.8159L27.3684 17.8346V18.5657H28.1184ZM22.7867 18.5657L22.0378 18.5251C22.0266 18.7307 22.1006 18.9319 22.2422 19.0814C22.3838 19.231 22.5807 19.3157 22.7867 19.3157V18.5657ZM23.4517 16.689L23.9777 17.2236C24.0097 17.1921 24.0389 17.1578 24.0648 17.121L23.4517 16.689ZM28.1184 15.3977L28.7034 15.8669L28.1184 15.3977ZM29.1566 8.97584L29.7902 9.37705L29.1566 8.97584ZM31 7.99993H31.75C31.75 7.77874 31.6524 7.56883 31.4832 7.42632C31.314 7.28382 31.0906 7.22326 30.8726 7.26083L31 7.99993ZM30.1549 17.9019L29.6729 17.3272L30.1549 17.9019ZM15.882 7.24993C15.4982 7.2498 14.8709 7.24279 14.272 7.31897C13.9705 7.35731 13.6494 7.41962 13.3516 7.52654C13.0593 7.63149 12.7372 7.79794 12.4902 8.077L13.6135 9.07114C13.6307 9.05164 13.695 8.99701 13.8585 8.93829C14.0166 8.88153 14.2207 8.83757 14.4612 8.80698C14.9462 8.7453 15.4696 8.74979 15.8814 8.74993L15.882 7.24993ZM11.972 10.9265H7.26628V12.4265H11.972V10.9265ZM6.51628 11.6765V13.8893H8.01628V11.6765H6.51628ZM11.5222 24.7498H15.8817V23.2498H11.5222V24.7498ZM12.4902 8.077C12.2603 8.3368 12.0855 8.71613 11.9565 9.04158C11.8174 9.39255 11.6918 9.78658 11.5875 10.1474C11.4826 10.5104 11.3958 10.8519 11.3353 11.1018C11.305 11.2271 11.2811 11.3301 11.2647 11.4023C11.2565 11.4385 11.2502 11.4669 11.2458 11.4866C11.2436 11.4965 11.2419 11.5042 11.2408 11.5095C11.2402 11.5122 11.2397 11.5143 11.2394 11.5158C11.2392 11.5166 11.2391 11.5172 11.239 11.5176C11.239 11.5179 11.2389 11.518 11.2389 11.5182C11.2389 11.5183 11.2389 11.5184 11.2388 11.5184C11.2388 11.5185 11.2388 11.5185 11.972 11.6765C12.7052 11.8345 12.7051 11.8346 12.7051 11.8346L12.7051 11.8346C12.7051 11.8346 12.7051 11.8346 12.7052 11.8345C12.7052 11.8344 12.7053 11.8341 12.7053 11.8336C12.7055 11.8327 12.7059 11.8313 12.7063 11.8292C12.7072 11.8251 12.7086 11.8188 12.7105 11.8102C12.7142 11.7932 12.7199 11.7676 12.7275 11.7345C12.7425 11.6682 12.7648 11.5721 12.7932 11.4545C12.8503 11.2187 12.9315 10.8997 13.0285 10.5639C13.1262 10.2259 13.2366 9.88271 13.3509 9.59438C13.4754 9.28053 13.5716 9.11848 13.6135 9.07114L12.4902 8.077ZM15.882 8.74993C16.2939 8.74979 16.8172 8.74522 17.3022 8.80684C17.5428 8.8374 17.7469 8.88132 17.9049 8.93805C18.0685 8.99675 18.1327 9.05135 18.1499 9.07083L19.2732 8.07668C19.0262 7.7976 18.704 7.63116 18.4117 7.52624C18.1139 7.41936 17.7927 7.3571 17.4913 7.3188C16.8924 7.24271 16.265 7.2498 15.8814 7.24993L15.882 8.74993ZM23.7471 11.6762V13.8889H25.2471V11.6762H23.7471ZM24.4971 13.1389H20.2412V14.6389H24.4971V13.1389ZM19.4912 13.8889V23.9994H20.9912V13.8889H19.4912ZM20.2411 23.2494L15.8816 23.2498L15.8817 24.7498L20.2412 24.7494L20.2411 23.2494ZM18.1499 9.07083C18.1918 9.11817 18.288 9.28022 18.4124 9.59407C18.5267 9.8824 18.6371 10.2256 18.7348 10.5636C18.8319 10.8994 18.9131 11.2184 18.9702 11.4542C18.9986 11.5718 19.0209 11.6679 19.0359 11.7342C19.0434 11.7673 19.0491 11.7929 19.0529 11.8099C19.0548 11.8184 19.0562 11.8248 19.0571 11.8289C19.0575 11.8309 19.0578 11.8324 19.058 11.8333C19.0581 11.8338 19.0582 11.8341 19.0582 11.8342C19.0582 11.8343 19.0582 11.8343 19.0582 11.8343C19.0582 11.8343 19.0582 11.8343 19.0582 11.8343C19.0582 11.8342 19.0582 11.8342 19.7914 11.6762C20.5246 11.5182 20.5245 11.5182 20.5245 11.5181C20.5245 11.518 20.5245 11.518 20.5245 11.5179C20.5245 11.5177 20.5244 11.5175 20.5244 11.5173C20.5243 11.5169 20.5241 11.5163 20.524 11.5155C20.5236 11.514 20.5232 11.5119 20.5226 11.5092C20.5214 11.5038 20.5198 11.4962 20.5176 11.4863C20.5132 11.4666 20.5069 11.4381 20.4987 11.402C20.4823 11.3298 20.4584 11.2267 20.4281 11.1015C20.3676 10.8515 20.2808 10.5101 20.1759 10.1471C20.0716 9.78626 19.946 9.39224 19.8068 9.04127C19.6778 8.71581 19.5031 8.33649 19.2732 8.07668L18.1499 9.07083ZM19.7914 12.4262H24.4971V10.9262H19.7914V12.4262ZM11.972 12.4265L19.7914 12.4262L19.7914 10.9262L11.972 10.9265L11.972 12.4265ZM10.7722 13.8893V23.9998H12.2722V13.8893H10.7722ZM7.26628 14.6393H11.5222V13.1393H7.26628V14.6393ZM20.2412 13.1389L11.5222 13.1393L11.5222 14.6393L20.2412 14.6389L20.2412 13.1389ZM6.18118 24.7498H7.57789V23.2498H6.18118V24.7498ZM6.93118 23.9998V18.5657H5.43118V23.9998H6.93118ZM2.72739 24.7498H3.88163V23.2498H2.72739V24.7498ZM3.88163 24.7498H6.18118V23.2498H3.88163V24.7498ZM4.63163 23.9998V18.5657H3.13163V23.9998H4.63163ZM6.18118 19.3157H9.21331V17.8157H6.18118V19.3157ZM9.21331 18.5657C9.96221 18.5251 9.9622 18.5249 9.96219 18.5247C9.96218 18.5247 9.96217 18.5245 9.96217 18.5244C9.96215 18.5241 9.96214 18.5238 9.96212 18.5235C9.96209 18.523 9.96205 18.5223 9.96201 18.5215C9.96192 18.5201 9.96182 18.5182 9.96169 18.5161C9.96143 18.5119 9.96108 18.5064 9.96062 18.4997C9.95971 18.4864 9.95837 18.4683 9.95648 18.446C9.95271 18.4013 9.94674 18.3393 9.93757 18.2641C9.91935 18.1145 9.88793 17.9075 9.83453 17.6773C9.7359 17.2522 9.53126 16.6039 9.07431 16.1544L8.02233 17.2236C8.16037 17.3595 8.28822 17.6495 8.37334 18.0164C8.4118 18.1821 8.43507 18.3346 8.44857 18.4454C8.45527 18.5004 8.45941 18.5438 8.46179 18.5721C8.46298 18.5862 8.46373 18.5964 8.46413 18.6023C8.46433 18.6052 8.46445 18.6071 8.46449 18.6077C8.46451 18.6081 8.46451 18.6081 8.4645 18.6079C8.46449 18.6078 8.46448 18.6076 8.46446 18.6073C8.46445 18.6072 8.46445 18.607 8.46444 18.6068C8.46443 18.6067 8.46442 18.6066 8.46442 18.6066C8.46441 18.6064 8.46441 18.6063 9.21331 18.5657ZM9.16139 16.257C8.98169 16.002 8.72768 15.8571 8.52412 15.7701C8.31244 15.6795 8.07811 15.6192 7.85387 15.5747C7.41093 15.4868 6.87213 15.4364 6.3921 15.3851C5.88646 15.331 5.42624 15.2743 5.0506 15.1801C4.64556 15.0785 4.5 14.97 4.46672 14.9285L3.29655 15.8669C3.65578 16.3148 4.22414 16.5192 4.68559 16.635C5.17646 16.7582 5.73533 16.8234 6.23255 16.8766C6.75539 16.9325 7.20323 16.9748 7.56189 17.046C7.73845 17.081 7.85867 17.1169 7.93417 17.1492C8.01778 17.1849 7.9836 17.1896 7.93525 17.121L9.16139 16.257ZM4.46672 14.9285C4.34166 14.7725 4.2244 14.464 4.15041 13.9406C4.07901 13.4355 4.06115 12.8427 4.04846 12.1985C4.03617 11.5744 4.0288 10.8956 3.96756 10.2921C3.90817 9.70681 3.789 9.06725 3.4771 8.57463L2.20977 9.37705C2.32401 9.55748 2.41985 9.89777 2.47522 10.4435C2.52874 10.971 2.53588 11.5745 2.54875 12.2281C2.56123 12.8617 2.57919 13.5423 2.66517 14.1505C2.74855 14.7404 2.91023 15.3852 3.29655 15.8669L4.46672 14.9285ZM3.4771 8.57463C3.10483 7.98668 2.4412 7.67122 2.01077 7.50902C1.77527 7.42028 1.55937 7.35939 1.40268 7.32055C1.32375 7.30099 1.25835 7.28666 1.21116 7.27695C1.18754 7.27209 1.16837 7.26837 1.15424 7.26571C1.14717 7.26438 1.14136 7.26331 1.13686 7.2625C1.13462 7.2621 1.1327 7.26176 1.13112 7.26148C1.13033 7.26134 1.12963 7.26122 1.12901 7.26111C1.1287 7.26106 1.12841 7.26101 1.12814 7.26096C1.12801 7.26094 1.12782 7.2609 1.12776 7.26089C1.12758 7.26086 1.12741 7.26083 1 7.99993C0.872595 8.73903 0.872432 8.739 0.872274 8.73898C0.872229 8.73897 0.872076 8.73894 0.871985 8.73893C0.871802 8.73889 0.871639 8.73887 0.871496 8.73884C0.87121 8.73879 0.871005 8.73876 0.870878 8.73873C0.870625 8.73869 0.870688 8.7387 0.871058 8.73877C0.871798 8.7389 0.873763 8.73926 0.876886 8.73984C0.883138 8.74102 0.893983 8.74311 0.908885 8.74618C0.938759 8.75232 0.984488 8.76229 1.04184 8.7765C1.1577 8.80522 1.31495 8.84978 1.48184 8.91267C1.85619 9.05374 2.11428 9.22624 2.20977 9.37705L3.4771 8.57463ZM0.25 7.99993V15.5881H1.75V7.99993H0.25ZM0.25 15.5881C0.25 16.1031 0.338896 16.6512 0.510752 17.146C0.678943 17.6302 0.950207 18.1302 1.36318 18.4766L2.32705 17.3272C2.19782 17.2189 2.04652 16.9959 1.92771 16.6538C1.81256 16.3223 1.75 15.9409 1.75 15.5881H0.25ZM1.36318 18.4766C1.87958 18.9096 2.53196 19.108 2.99153 19.2044C3.23146 19.2547 3.44329 19.2821 3.59617 19.2971C3.67299 19.3046 3.73598 19.3091 3.7814 19.3117C3.80414 19.3131 3.82256 19.3139 3.83621 19.3145C3.84304 19.3148 3.84868 19.315 3.85307 19.3151C3.85527 19.3152 3.85715 19.3153 3.85872 19.3153C3.85951 19.3153 3.86022 19.3154 3.86084 19.3154C3.86115 19.3154 3.86145 19.3154 3.86172 19.3154C3.86186 19.3154 3.86205 19.3154 3.86211 19.3154C3.8623 19.3154 3.86248 19.3154 3.88163 18.5657C3.90079 17.8159 3.90096 17.8159 3.90113 17.8159C3.90118 17.8159 3.90134 17.8159 3.90143 17.8159C3.90163 17.8159 3.9018 17.8159 3.90196 17.8159C3.90227 17.8159 3.90251 17.816 3.90268 17.816C3.90301 17.816 3.90304 17.816 3.90279 17.816C3.90228 17.8159 3.90061 17.8159 3.89785 17.8158C3.89232 17.8155 3.88241 17.8151 3.86857 17.8143C3.84083 17.8127 3.79761 17.8097 3.74229 17.8042C3.63088 17.7933 3.47463 17.7731 3.29948 17.7364C2.92888 17.6586 2.563 17.5251 2.32705 17.3272L1.36318 18.4766ZM25.8188 23.2498H24.4221V24.7498H25.8188V23.2498ZM26.5688 23.9998V18.5657H25.0688V23.9998H26.5688ZM29.2726 23.2498H28.1184V24.7498H29.2726V23.2498ZM28.1184 23.2498H25.8188V24.7498H28.1184V23.2498ZM28.8684 23.9998V18.5657H27.3684V23.9998H28.8684ZM25.8188 17.8157H22.7867V19.3157H25.8188V17.8157ZM22.7867 18.5657C23.5356 18.6063 23.5356 18.6064 23.5356 18.6066C23.5356 18.6066 23.5356 18.6067 23.5356 18.6068C23.5356 18.607 23.5355 18.6072 23.5355 18.6073C23.5355 18.6076 23.5355 18.6078 23.5355 18.6079C23.5355 18.6081 23.5355 18.6081 23.5355 18.6077C23.5356 18.6071 23.5357 18.6052 23.5359 18.6023C23.5363 18.5964 23.537 18.5862 23.5382 18.5721C23.5406 18.5438 23.5447 18.5004 23.5514 18.4454C23.5649 18.3346 23.5882 18.1821 23.6267 18.0164C23.7118 17.6495 23.8396 17.3595 23.9777 17.2236L22.9257 16.1544C22.4687 16.6039 22.2641 17.2522 22.1655 17.6773C22.1121 17.9075 22.0806 18.1145 22.0624 18.2641C22.0533 18.3393 22.0473 18.4013 22.0435 18.446C22.0416 18.4683 22.0403 18.4864 22.0394 18.4997C22.0389 18.5064 22.0386 18.5119 22.0383 18.5161C22.0382 18.5182 22.0381 18.5201 22.038 18.5215C22.0379 18.5223 22.0379 18.523 22.0379 18.5235C22.0379 18.5238 22.0378 18.5241 22.0378 18.5244C22.0378 18.5245 22.0378 18.5247 22.0378 18.5247C22.0378 18.5249 22.0378 18.5251 22.7867 18.5657ZM24.0648 17.121C24.0164 17.1896 23.9822 17.1849 24.0658 17.1492C24.1413 17.1169 24.2615 17.081 24.4381 17.046C24.7968 16.9748 25.2446 16.9325 25.7674 16.8766C26.2647 16.8234 26.8235 16.7582 27.3144 16.635C27.7759 16.5192 28.3442 16.3148 28.7034 15.8669L27.5333 14.9285C27.5 14.97 27.3544 15.0785 26.9494 15.1801C26.5738 15.2743 26.1135 15.331 25.6079 15.3851C25.1279 15.4364 24.5891 15.4868 24.1461 15.5747C23.9219 15.6192 23.6876 15.6795 23.4759 15.7701C23.2723 15.8571 23.0183 16.002 22.8386 16.257L24.0648 17.121ZM28.7034 15.8669C29.0898 15.3852 29.2514 14.7404 29.3348 14.1505C29.4208 13.5423 29.4388 12.8617 29.4512 12.2281C29.4641 11.5745 29.4713 10.971 29.5248 10.4435C29.5802 9.89777 29.676 9.55748 29.7902 9.37705L28.5229 8.57463C28.211 9.06725 28.0918 9.70681 28.0324 10.2921C27.9712 10.8956 27.9638 11.5744 27.9515 12.1985C27.9389 12.8427 27.921 13.4355 27.8496 13.9406C27.7756 14.464 27.6583 14.7725 27.5333 14.9285L28.7034 15.8669ZM29.7902 9.37705C29.8857 9.22624 30.1438 9.05374 30.5182 8.91267C30.685 8.84978 30.8423 8.80522 30.9582 8.7765C31.0155 8.76229 31.0612 8.75232 31.0911 8.74618C31.106 8.74311 31.1169 8.74102 31.1231 8.73984C31.1262 8.73926 31.1282 8.7389 31.1289 8.73877C31.1293 8.7387 31.1294 8.73869 31.1291 8.73873C31.129 8.73876 31.1288 8.73879 31.1285 8.73884C31.1284 8.73887 31.1282 8.73889 31.128 8.73893C31.1279 8.73894 31.1278 8.73897 31.1277 8.73898C31.1276 8.739 31.1274 8.73903 31 7.99993C30.8726 7.26083 30.8724 7.26086 30.8722 7.26089C30.8722 7.2609 30.872 7.26094 30.8719 7.26096C30.8716 7.26101 30.8713 7.26106 30.871 7.26111C30.8704 7.26122 30.8697 7.26134 30.8689 7.26148C30.8673 7.26176 30.8654 7.2621 30.8631 7.2625C30.8586 7.26331 30.8528 7.26438 30.8458 7.26571C30.8316 7.26837 30.8125 7.27209 30.7888 7.27695C30.7416 7.28666 30.6762 7.30099 30.5973 7.32055C30.4406 7.35939 30.2247 7.42028 29.9892 7.50902C29.5588 7.67122 28.8952 7.98668 28.5229 8.57463L29.7902 9.37705ZM30.25 7.99993V15.5881H31.75V7.99993H30.25ZM30.25 15.5881C30.25 15.9409 30.1874 16.3223 30.0723 16.6538C29.9535 16.9959 29.8022 17.2189 29.6729 17.3272L30.6368 18.4766C31.0498 18.1302 31.3211 17.6302 31.4892 17.146C31.6611 16.6512 31.75 16.1031 31.75 15.5881H30.25ZM29.6729 17.3272C29.437 17.5251 29.0711 17.6586 28.7005 17.7364C28.5254 17.7731 28.3691 17.7933 28.2577 17.8042C28.2024 17.8097 28.1592 17.8127 28.1314 17.8143C28.1176 17.8151 28.1077 17.8155 28.1022 17.8158C28.0994 17.8159 28.0977 17.8159 28.0972 17.816C28.097 17.816 28.097 17.816 28.0973 17.816C28.0975 17.816 28.0977 17.8159 28.098 17.8159C28.0982 17.8159 28.0984 17.8159 28.0986 17.8159C28.0987 17.8159 28.0988 17.8159 28.0989 17.8159C28.099 17.8159 28.0992 17.8159 28.1184 18.5657C28.1375 19.3154 28.1377 19.3154 28.1379 19.3154C28.138 19.3154 28.1381 19.3154 28.1383 19.3154C28.1386 19.3154 28.1388 19.3154 28.1392 19.3154C28.1398 19.3154 28.1405 19.3153 28.1413 19.3153C28.1428 19.3153 28.1447 19.3152 28.1469 19.3151C28.1513 19.315 28.157 19.3148 28.1638 19.3145C28.1774 19.3139 28.1959 19.3131 28.2186 19.3117C28.264 19.3091 28.327 19.3046 28.4038 19.2971C28.5567 19.2821 28.7685 19.2547 29.0085 19.2044C29.468 19.108 30.1204 18.9096 30.6368 18.4766L29.6729 17.3272Z" fill="#AA8B62"/>
</svg>
